1064
Lattice="62.448455391 0.0 0.0 0.0 20.602647164 0.0 0.0 0.0 40.0" Properties=species:S:1:pos:R:3:Z:I:1 i=46, E=-989.627371277 pbc="T T T"
H      5.39441041      10.30088820      22.53939622        1 
H      5.39426118      10.30088842      20.79000000        1 
H      5.09276400       7.81804721      21.66462948        1 
H      5.09189294      12.78365851      21.66462948        1 
C      8.26350380       6.60352719      21.66462948        6 
C      6.88121792       6.60238722      21.66462948        6 
C      8.99599684       7.81265809      21.66462948        6 
C      6.18428636       7.81682707      21.66462948        6 
C      8.28396785       9.04988860      21.66462948        6 
C      6.86385264       9.02721428      21.66462948        6 
C      9.00825408      10.30147021      21.66462948        6 
C      6.06656970      10.30097863      21.66462948        6 
C      8.28347676      11.55280174      21.66462948        6 
C      6.86338610      11.57499150      21.66462948        6 
C      8.99498685      12.79024493      21.66462948        6 
C      6.18341427      12.78514916      21.66462948        6 
C      8.26219765      13.99914541      21.66462948        6 
C      6.87993927      13.99982721      21.66462948        6 
H      6.33598984       5.65871631      21.66462948        1 
H      6.33442347      14.94334923      21.66462948        1 
H      8.78374632       5.64907513      21.66462948        1 
H      8.78212851      14.95376853      21.66462948        1 
C     12.56273404       6.62685003      21.66462948        6 
C     11.19199517       6.62422273      21.66462948        6 
C     13.30068861       7.83487050      21.66462948        6 
C     10.44459289       7.82642419      21.66462948        6 
C     12.58395866       9.06358944      21.66462948        6 
C     11.14759602       9.05871620      21.66462948        6 
C     13.30575865      10.30250563      21.66462948        6 
C     10.41898388      10.30177735      21.66462948        6 
C     12.58337493      11.54111702      21.66462948        6 
C     11.14705026      11.54521077      21.66462948        6 
C     13.29944853      12.77015566      21.66462948        6 
C     10.44351112      12.77709877      21.66462948        6 
C     12.56090201      13.97774744      21.66462948        6 
C     11.19021898      13.97967781      21.66462948        6 
H     10.67999528       5.66537646      21.66462948        1 
H     10.67781895      14.93830558      21.66462948        1 
H     13.07881014       5.67027727      21.66462948        1 
H     13.07652388      14.93456317      21.66462948        1 
C     16.85773163       6.63046714      21.66462948        6 
C     15.48716421       6.63050522      21.66462948        6 
C     17.60143079       7.83697364      21.66462948        6 
C     14.74260581       7.83657255      21.66462948        6 
C     16.88858550       9.06693169      21.66462948        6 
C     15.45241246       9.06649724      21.66462948        6 
C     17.61020281      10.30382598      21.66462948        6 
C     14.72774870      10.30294404      21.66462948        6 
C     16.88793218      11.54037379      21.66462948        6 
C     15.45177429      11.53988591      21.66462948        6 
C     17.60012156      12.77068457      21.66462948        6 
C     14.74130536      12.76931876      21.66462948        6 
C     16.85572517      13.97666571      21.66462948        6 
C     15.48514615      13.97577531      21.66462948        6 
H     14.97402931       5.67231288      21.66462948        1 
H     14.97143493      14.93365739      21.66462948        1 
H     17.37185658       5.67268772      21.66462948        1 
H     17.36920737      14.93479423      21.66462948        1 
C     21.15855045       6.63172092      21.66462948        6 
C     19.78811457       6.63140190      21.66462948        6 
C     21.90253974       7.83823736      21.66462948        6 
C     19.04261097       7.83736823      21.66462948        6 
C     21.19024899       9.06808081      21.66462948        6 
C     19.75404145       9.06760569      21.66462948        6 
C     21.91139082      10.30508775      21.66462948        6 
C     19.03220889      10.30428772      21.66462948        6 
C     21.18973698      11.54189683      21.66462948        6 
C     19.75346662      11.54150329      21.66462948        6 
C     21.90156126      12.77199922      21.66462948        6 
C     19.04133788      12.77121596      21.66462948        6 
C     21.15678765      13.97801806      21.66462948        6 
C     19.78629520      13.97749502      21.66462948        6 
H     19.27475868       5.67319898      21.66462948        1 
H     19.27240738      14.93543632      21.66462948        1 
H     21.67256526       5.67391718      21.66462948        1 
H     21.67012615      14.93622633      21.66462948        1 
C     25.45840130       6.63202463      21.66462948        6 
C     24.08791310       6.63218665      21.66462948        6 
C     26.20341120       7.83827299      21.66462948        6 
C     23.34364845       7.83855172      21.66462948        6 
C     25.49153600       9.06859485      21.66462948        6 
C     24.05551001       9.06864485      21.66462948        6 
C     26.21276600      10.30566465      21.66462948        6 
C     23.33392918      10.30539341      21.66462948        6 
C     25.49126456      11.54277637      21.66462948        6 
C     24.05515904      11.54249960      21.66462948        6 
C     26.20304996      12.77305886      21.66462948        6 
C     23.34282017      12.77227152      21.66462948        6 
C     25.45762227      13.97902748      21.66462948        6 
C     24.08702282      13.97865200      21.66462948        6 
H     23.57405735       5.67430716      21.66462948        1 
H     23.57310680      14.93654494      21.66462948        1 
H     25.97207396       5.67399378      21.66462948        1 
H     25.97106211      14.93722470      21.66462948        1 
C     29.76004465       6.63229448      21.66462948        6 
C     28.38956184       6.63218955      21.66462948        6 
C     30.50425610       7.83874412      21.66462948        6 
C     27.64436539       7.83834871      21.66462948        6 
C     29.79222762       9.06882132      21.66462948        6 
C     28.35614049       9.06868413      21.66462948        6 
C     30.51356361      10.30571484      21.66462948        6 
C     27.63478073      10.30567467      21.66462948        6 
C     29.79214916      11.54273611      21.66462948        6 
C     28.35602115      11.54284856      21.66462948        6 
C     30.50425516      12.77263193      21.66462948        6 
C     27.64410939      12.77306391      21.66462948        6 
C     29.75997483      13.97893460      21.66462948        6 
C     28.38943722      13.97908080      21.66462948        6 
H     27.87582772       5.67418194      21.66462948        1 
H     27.87585478      14.93719583      21.66462948        1 
H     30.27382075       5.67435665      21.66462948        1 
H     30.27375372      14.93688268      21.66462948        1 
C     34.06009152       6.63220037      21.66462948        6 
C     32.68966673       6.63228575      21.66462948        6 
C     34.80528421       7.83834496      21.66462948        6 
C     31.94538838       7.83872484      21.66462948        6 
C     34.09353986       9.06864983      21.66462948        6 
C     32.65738717       9.06879308      21.66462948        6 
C     34.81483636      10.30562527      21.66462948        6 
C     31.93613128      10.30570900      21.66462948        6 
C     34.09368690      11.54279776      21.66462948        6 
C     32.65749945      11.54273314      21.66462948        6 
C     34.80559783      12.77296116      21.66462948        6 
C     31.94544811      12.77263642      21.66462948        6 
C     34.06032390      13.97898534      21.66462948        6 
C     32.68985162      13.97889967      21.66462948        6 
H     32.17595711       5.67431409      21.66462948        1 
H     32.17618260      14.93690255      21.66462948        1 
H     34.57385347       5.67420840      21.66462948        1 
H     34.57398141      14.93705579      21.66462948        1 
C     38.36154069       6.63203442      21.66462948        6 
C     36.99103131       6.63192329      21.66462948        6 
C     39.10576618       7.83842934      21.66462948        6 
C     36.24621301       7.83824154      21.66462948        6 
C     38.39399297       9.06858206      21.66462948        6 
C     36.95809295       9.06855024      21.66462948        6 
C     39.11558557      10.30535170      21.66462948        6 
C     36.23685400      10.30560738      21.66462948        6 
C     38.39436165      11.54247044      21.66462948        6 
C     36.95838140      11.54270439      21.66462948        6 
C     39.10663673      12.77230543      21.66462948        6 
C     36.24662406      12.77297694      21.66462948        6 
C     38.36245491      13.97870323      21.66462948        6 
C     36.99183557      13.97902232      21.66462948        6 
H     36.47730559       5.67392981      21.66462948        1 
H     36.47833285      14.93717349      21.66462948        1 
H     38.87541860       5.67416475      21.66462948        1 
H     38.87638685      14.93659228      21.66462948        1 
C     42.66125147       6.63134363      21.66462948        6 
C     41.29087884       6.63162677      21.66462948        6 
C     43.40661835       7.83734750      21.66462948        6 
C     40.54679532       7.83811242      21.66462948        6 
C     42.69520009       9.06754248      21.66462948        6 
C     41.25901411       9.06798482      21.66462948        6 
C     43.41695372      10.30422337      21.66462948        6 
C     40.53799687      10.30504204      21.66462948        6 
C     42.69579467      11.54144892      21.66462948        6 
C     41.25954780      11.54189675      21.66462948        6 
C     43.40792721      12.77110614      21.66462948        6 
C     40.54781527      12.77204478      21.66462948        6 
C     42.66315984      13.97744546      21.66462948        6 
C     41.29272687      13.97802869      21.66462948        6 
H     40.77686379       5.67382171      21.66462948        1 
H     40.77942804      14.93626315      21.66462948        1 
H     43.17461958       5.67315627      21.66462948        1 
H     43.17709625      14.93535044      21.66462948        1 
C     46.96175113       6.63036537      21.66462948        6 
C     45.59119493       6.63036326      21.66462948        6 
C     47.70634424       7.83642977      21.66462948        6 
C     44.84775169       7.83695737      21.66462948        6 
C     46.99663892       9.06640270      21.66462948        6 
C     45.56056817       9.06689299      21.66462948        6 
C     47.72126858      10.30286438      21.66462948        6 
C     44.83897442      10.30376891      21.66462948        6 
C     46.99731973      11.53983535      21.66462948        6 
C     45.56125588      11.54028396      21.66462948        6 
C     47.70771681      12.76931626      21.66462948        6 
C     44.84910062      12.77056386      21.66462948        6 
C     46.96382310      13.97576941      21.66462948        6 
C     45.59325409      13.97662086      21.66462948        6 
H     45.07703346       5.67262041      21.66462948        1 
H     45.07972550      14.93470638      21.66462948        1 
H     47.47492539       5.67219681      21.66462948        1 
H     47.47756133      14.93363849      21.66462948        1 
C     51.25683195       6.62408854      21.66462948        6 
C     49.88615264       6.62670027      21.66462948        6 
C     52.00405218       7.82633743      21.66462948        6 
C     49.14815838       7.83471581      21.66462948        6 
C     51.30111687       9.05860775      21.66462948        6 
C     49.86482347       9.06345956      21.66462948        6 
C     52.02973166      10.30162384      21.66462948        6 
C     49.14310846      10.30240857      21.66462948        6 
C     51.30170593      11.54504610      21.66462948        6 
C     49.86544873      11.54102776      21.66462948        6 
C     52.00524940      12.77687120      21.66462948        6 
C     49.14948393      12.77013404      21.66462948        6 
C     51.25877907      13.97953361      21.66462948        6 
C     49.88814544      13.97768988      21.66462948        6 
H     49.37004483       5.67014765      21.66462948        1 
H     49.37255100      14.93452344      21.66462948        1 
H     51.76885159       5.66526581      21.66462948        1 
H     51.77126211      14.93810281      21.66462948        1 
C     55.56702063       6.60204949      21.66462948        6 
C     54.18477427       6.60328758      21.66462948        6 
C     56.26404257       7.81644394      21.66462948        6 
C     53.45259944       7.81253111      21.66462948        6 
C     55.58472231       9.02695437      21.66462948        6 
C     54.16466052       9.04969408      21.66462948        6 
C     56.38213432      10.30069539      21.66462948        6 
C     53.44046425      10.30127172      21.66462948        6 
C     55.58525825      11.57473577      21.66462948        6 
C     54.16521639      11.55254585      21.66462948        6 
C     56.26503450      12.78498684      21.66462948        6 
C     53.45373232      12.78996421      21.66462948        6 
C     55.56847921      13.99965065      21.66462948        6 
C     54.18625943      13.99894391      21.66462948        6 
H     53.66448700       5.64887864      21.66462948        1 
H     53.66634585      14.95355386      21.66462948        1 
H     56.11225257       5.65837454      21.66462948        1 
H     56.11407433      14.94312924      21.66462948        1 
H     57.05431030      10.30057835      22.53939815        1 
H     57.05447207      10.30057860      20.79000828        1 
H     57.35557224       7.81751058      21.66462948        1 
H     57.35656245      12.78356034      21.66462948        1 
H      1.50227380       3.09117699      10.43400002        1 
H      1.50227380       8.24183878      10.43400002        1 
H      1.50227380      13.39250057      10.43400002        1 
H      1.50227380      18.54316236      10.43400002        1 
H      4.47600977       3.09117699      10.43400002        1 
H      4.47600977       8.24183878      10.43400002        1 
H      4.47600977      13.39250057      10.43400002        1 
H      4.47600977      18.54316236      10.43400002        1 
H      7.44974574       3.09117699      10.43400002        1 
H      7.44974574       8.24183878      10.43400002        1 
H      7.44974574      13.39250057      10.43400002        1 
H      7.44974574      18.54316236      10.43400002        1 
H     10.42348171       3.09117699      10.43400002        1 
H     10.42348171       8.24183878      10.43400002        1 
H     10.42348171      13.39250057      10.43400002        1 
H     10.42348171      18.54316236      10.43400002        1 
H     13.39721768       3.09117699      10.43400002        1 
H     13.39721768       8.24183878      10.43400002        1 
H     13.39721768      13.39250057      10.43400002        1 
H     13.39721768      18.54316236      10.43400002        1 
H     16.37095365       3.09117699      10.43400002        1 
H     16.37095365       8.24183878      10.43400002        1 
H     16.37095365      13.39250057      10.43400002        1 
H     16.37095365      18.54316236      10.43400002        1 
H     19.34468962       3.09117699      10.43400002        1 
H     19.34468962       8.24183878      10.43400002        1 
H     19.34468962      13.39250057      10.43400002        1 
H     19.34468962      18.54316236      10.43400002        1 
H     22.31842559       3.09117699      10.43400002        1 
H     22.31842559       8.24183878      10.43400002        1 
H     22.31842559      13.39250057      10.43400002        1 
H     22.31842559      18.54316236      10.43400002        1 
H     25.29216157       3.09117699      10.43400002        1 
H     25.29216157       8.24183878      10.43400002        1 
H     25.29216157      13.39250057      10.43400002        1 
H     25.29216157      18.54316236      10.43400002        1 
H     28.26589754       3.09117699      10.43400002        1 
H     28.26589754       8.24183878      10.43400002        1 
H     28.26589754      13.39250057      10.43400002        1 
H     28.26589754      18.54316236      10.43400002        1 
H     31.23963351       3.09117699      10.43400002        1 
H     31.23963351       8.24183878      10.43400002        1 
H     31.23963351      13.39250057      10.43400002        1 
H     31.23963351      18.54316236      10.43400002        1 
H     34.21336948       3.09117699      10.43400002        1 
H     34.21336948       8.24183878      10.43400002        1 
H     34.21336948      13.39250057      10.43400002        1 
H     34.21336948      18.54316236      10.43400002        1 
H     37.18710545       3.09117699      10.43400002        1 
H     37.18710545       8.24183878      10.43400002        1 
H     37.18710545      13.39250057      10.43400002        1 
H     37.18710545      18.54316236      10.43400002        1 
H     40.16084142       3.09117699      10.43400002        1 
H     40.16084142       8.24183878      10.43400002        1 
H     40.16084142      13.39250057      10.43400002        1 
H     40.16084142      18.54316236      10.43400002        1 
H     43.13457739       3.09117699      10.43400002        1 
H     43.13457739       8.24183878      10.43400002        1 
H     43.13457739      13.39250057      10.43400002        1 
H     43.13457739      18.54316236      10.43400002        1 
H     46.10831336       3.09117699      10.43400002        1 
H     46.10831336       8.24183878      10.43400002        1 
H     46.10831336      13.39250057      10.43400002        1 
H     46.10831336      18.54316236      10.43400002        1 
H     49.08204933       3.09117699      10.43400002        1 
H     49.08204933       8.24183878      10.43400002        1 
H     49.08204933      13.39250057      10.43400002        1 
H     49.08204933      18.54316236      10.43400002        1 
H     52.05578530       3.09117699      10.43400002        1 
H     52.05578530       8.24183878      10.43400002        1 
H     52.05578530      13.39250057      10.43400002        1 
H     52.05578530      18.54316236      10.43400002        1 
H     55.02952128       3.09117699      10.43400002        1 
H     55.02952128       8.24183878      10.43400002        1 
H     55.02952128      13.39250057      10.43400002        1 
H     55.02952128      18.54316236      10.43400002        1 
H     58.00325725       3.09117699      10.43400002        1 
H     58.00325725       8.24183878      10.43400002        1 
H     58.00325725      13.39250057      10.43400002        1 
H     58.00325725      18.54316236      10.43400002        1 
H     60.97699322       3.09117699      10.43400002        1 
H     60.97699322       8.24183878      10.43400002        1 
H     60.97699322      13.39250057      10.43400002        1 
H     60.97699322      18.54316236      10.43400002        1 
H      0.01748767       0.52130902      10.43920040        1 
H      0.01748767       5.67197081      10.43920040        1 
H      0.01748767      10.82263260      10.43920040        1 
H      0.01748767      15.97329439      10.43920040        1 
H      2.99122364       0.52130902      10.43920040        1 
H      2.99122364       5.67197081      10.43920040        1 
H      2.99122364      10.82263260      10.43920040        1 
H      2.99122364      15.97329439      10.43920040        1 
H      5.96495961       0.52130902      10.43920040        1 
H      5.96495961       5.67197081      10.43920040        1 
H      5.96495961      10.82263260      10.43920040        1 
H      5.96495961      15.97329439      10.43920040        1 
H      8.93869558       0.52130902      10.43920040        1 
H      8.93869558       5.67197081      10.43920040        1 
H      8.93869558      10.82263260      10.43920040        1 
H      8.93869558      15.97329439      10.43920040        1 
H     11.91243155       0.52130902      10.43920040        1 
H     11.91243155       5.67197081      10.43920040        1 
H     11.91243155      10.82263260      10.43920040        1 
H     11.91243155      15.97329439      10.43920040        1 
H     14.88616752       0.52130902      10.43920040        1 
H     14.88616752       5.67197081      10.43920040        1 
H     14.88616752      10.82263260      10.43920040        1 
H     14.88616752      15.97329439      10.43920040        1 
H     17.85990350       0.52130902      10.43920040        1 
H     17.85990350       5.67197081      10.43920040        1 
H     17.85990350      10.82263260      10.43920040        1 
H     17.85990350      15.97329439      10.43920040        1 
H     20.83363947       0.52130902      10.43920040        1 
H     20.83363947       5.67197081      10.43920040        1 
H     20.83363947      10.82263260      10.43920040        1 
H     20.83363947      15.97329439      10.43920040        1 
H     23.80737544       0.52130902      10.43920040        1 
H     23.80737544       5.67197081      10.43920040        1 
H     23.80737544      10.82263260      10.43920040        1 
H     23.80737544      15.97329439      10.43920040        1 
H     26.78111141       0.52130902      10.43920040        1 
H     26.78111141       5.67197081      10.43920040        1 
H     26.78111141      10.82263260      10.43920040        1 
H     26.78111141      15.97329439      10.43920040        1 
H     29.75484738       0.52130902      10.43920040        1 
H     29.75484738       5.67197081      10.43920040        1 
H     29.75484738      10.82263260      10.43920040        1 
H     29.75484738      15.97329439      10.43920040        1 
H     32.72858335       0.52130902      10.43920040        1 
H     32.72858335       5.67197081      10.43920040        1 
H     32.72858335      10.82263260      10.43920040        1 
H     32.72858335      15.97329439      10.43920040        1 
H     35.70231932       0.52130902      10.43920040        1 
H     35.70231932       5.67197081      10.43920040        1 
H     35.70231932      10.82263260      10.43920040        1 
H     35.70231932      15.97329439      10.43920040        1 
H     38.67605529       0.52130902      10.43920040        1 
H     38.67605529       5.67197081      10.43920040        1 
H     38.67605529      10.82263260      10.43920040        1 
H     38.67605529      15.97329439      10.43920040        1 
H     41.64979126       0.52130902      10.43920040        1 
H     41.64979126       5.67197081      10.43920040        1 
H     41.64979126      10.82263260      10.43920040        1 
H     41.64979126      15.97329439      10.43920040        1 
H     44.62352723       0.52130902      10.43920040        1 
H     44.62352723       5.67197081      10.43920040        1 
H     44.62352723      10.82263260      10.43920040        1 
H     44.62352723      15.97329439      10.43920040        1 
H     47.59726321       0.52130902      10.43920040        1 
H     47.59726321       5.67197081      10.43920040        1 
H     47.59726321      10.82263260      10.43920040        1 
H     47.59726321      15.97329439      10.43920040        1 
H     50.57099918       0.52130902      10.43920040        1 
H     50.57099918       5.67197081      10.43920040        1 
H     50.57099918      10.82263260      10.43920040        1 
H     50.57099918      15.97329439      10.43920040        1 
H     53.54473515       0.52130902      10.43920040        1 
H     53.54473515       5.67197081      10.43920040        1 
H     53.54473515      10.82263260      10.43920040        1 
H     53.54473515      15.97329439      10.43920040        1 
H     56.51847112       0.52130902      10.43920040        1 
H     56.51847112       5.67197081      10.43920040        1 
H     56.51847112      10.82263260      10.43920040        1 
H     56.51847112      15.97329439      10.43920040        1 
H     59.49220709       0.52130902      10.43920040        1 
H     59.49220709       5.67197081      10.43920040        1 
H     59.49220709      10.82263260      10.43920040        1 
H     59.49220709      15.97329439      10.43920040        1 
Au      0.01124207       3.95453072      11.27680016       79 
Au      1.49811006       1.37889326      11.27680016       79 
Au      0.01124207       9.10519251      11.27680016       79 
Au      1.49811006       6.52955505      11.27680016       79 
Au      0.01124207      14.25585430      11.27680016       79 
Au      1.49811006      11.68021684      11.27680016       79 
Au      0.01124207      19.40651609      11.27680016       79 
Au      1.49811006      16.83087863      11.27680016       79 
Au      2.98497804       3.95453072      11.27680016       79 
Au      4.47184603       1.37889326      11.27680016       79 
Au      2.98497804       9.10519251      11.27680016       79 
Au      4.47184603       6.52955505      11.27680016       79 
Au      2.98497804      14.25585430      11.27680016       79 
Au      4.47184603      11.68021684      11.27680016       79 
Au      2.98497804      19.40651609      11.27680016       79 
Au      4.47184603      16.83087863      11.27680016       79 
Au      5.95871401       3.95453072      11.27680016       79 
Au      7.44558200       1.37889326      11.27680016       79 
Au      5.95871401       9.10519251      11.27680016       79 
Au      7.44558200       6.52955505      11.27680016       79 
Au      5.95871401      14.25585430      11.27680016       79 
Au      7.44558200      11.68021684      11.27680016       79 
Au      5.95871401      19.40651609      11.27680016       79 
Au      7.44558200      16.83087863      11.27680016       79 
Au      8.93244998       3.95453072      11.27680016       79 
Au     10.41931797       1.37889326      11.27680016       79 
Au      8.93244998       9.10519251      11.27680016       79 
Au     10.41931797       6.52955505      11.27680016       79 
Au      8.93244998      14.25585430      11.27680016       79 
Au     10.41931797      11.68021684      11.27680016       79 
Au      8.93244998      19.40651609      11.27680016       79 
Au     10.41931797      16.83087863      11.27680016       79 
Au     11.90618595       3.95453072      11.27680016       79 
Au     13.39305394       1.37889326      11.27680016       79 
Au     11.90618595       9.10519251      11.27680016       79 
Au     13.39305394       6.52955505      11.27680016       79 
Au     11.90618595      14.25585430      11.27680016       79 
Au     13.39305394      11.68021684      11.27680016       79 
Au     11.90618595      19.40651609      11.27680016       79 
Au     13.39305394      16.83087863      11.27680016       79 
Au     14.87992193       3.95453072      11.27680016       79 
Au     16.36678991       1.37889326      11.27680016       79 
Au     14.87992193       9.10519251      11.27680016       79 
Au     16.36678991       6.52955505      11.27680016       79 
Au     14.87992193      14.25585430      11.27680016       79 
Au     16.36678991      11.68021684      11.27680016       79 
Au     14.87992193      19.40651609      11.27680016       79 
Au     16.36678991      16.83087863      11.27680016       79 
Au     17.85365790       3.95453072      11.27680016       79 
Au     19.34052588       1.37889326      11.27680016       79 
Au     17.85365790       9.10519251      11.27680016       79 
Au     19.34052588       6.52955505      11.27680016       79 
Au     17.85365790      14.25585430      11.27680016       79 
Au     19.34052588      11.68021684      11.27680016       79 
Au     17.85365790      19.40651609      11.27680016       79 
Au     19.34052588      16.83087863      11.27680016       79 
Au     20.82739387       3.95453072      11.27680016       79 
Au     22.31426185       1.37889326      11.27680016       79 
Au     20.82739387       9.10519251      11.27680016       79 
Au     22.31426185       6.52955505      11.27680016       79 
Au     20.82739387      14.25585430      11.27680016       79 
Au     22.31426185      11.68021684      11.27680016       79 
Au     20.82739387      19.40651609      11.27680016       79 
Au     22.31426185      16.83087863      11.27680016       79 
Au     23.80112984       3.95453072      11.27680016       79 
Au     25.28799782       1.37889326      11.27680016       79 
Au     23.80112984       9.10519251      11.27680016       79 
Au     25.28799782       6.52955505      11.27680016       79 
Au     23.80112984      14.25585430      11.27680016       79 
Au     25.28799782      11.68021684      11.27680016       79 
Au     23.80112984      19.40651609      11.27680016       79 
Au     25.28799782      16.83087863      11.27680016       79 
Au     26.77486581       3.95453072      11.27680016       79 
Au     28.26173379       1.37889326      11.27680016       79 
Au     26.77486581       9.10519251      11.27680016       79 
Au     28.26173379       6.52955505      11.27680016       79 
Au     26.77486581      14.25585430      11.27680016       79 
Au     28.26173379      11.68021684      11.27680016       79 
Au     26.77486581      19.40651609      11.27680016       79 
Au     28.26173379      16.83087863      11.27680016       79 
Au     29.74860178       3.95453072      11.27680016       79 
Au     31.23546977       1.37889326      11.27680016       79 
Au     29.74860178       9.10519251      11.27680016       79 
Au     31.23546977       6.52955505      11.27680016       79 
Au     29.74860178      14.25585430      11.27680016       79 
Au     31.23546977      11.68021684      11.27680016       79 
Au     29.74860178      19.40651609      11.27680016       79 
Au     31.23546977      16.83087863      11.27680016       79 
Au     32.72233775       3.95453072      11.27680016       79 
Au     34.20920574       1.37889326      11.27680016       79 
Au     32.72233775       9.10519251      11.27680016       79 
Au     34.20920574       6.52955505      11.27680016       79 
Au     32.72233775      14.25585430      11.27680016       79 
Au     34.20920574      11.68021684      11.27680016       79 
Au     32.72233775      19.40651609      11.27680016       79 
Au     34.20920574      16.83087863      11.27680016       79 
Au     35.69607372       3.95453072      11.27680016       79 
Au     37.18294171       1.37889326      11.27680016       79 
Au     35.69607372       9.10519251      11.27680016       79 
Au     37.18294171       6.52955505      11.27680016       79 
Au     35.69607372      14.25585430      11.27680016       79 
Au     37.18294171      11.68021684      11.27680016       79 
Au     35.69607372      19.40651609      11.27680016       79 
Au     37.18294171      16.83087863      11.27680016       79 
Au     38.66980969       3.95453072      11.27680016       79 
Au     40.15667768       1.37889326      11.27680016       79 
Au     38.66980969       9.10519251      11.27680016       79 
Au     40.15667768       6.52955505      11.27680016       79 
Au     38.66980969      14.25585430      11.27680016       79 
Au     40.15667768      11.68021684      11.27680016       79 
Au     38.66980969      19.40651609      11.27680016       79 
Au     40.15667768      16.83087863      11.27680016       79 
Au     41.64354566       3.95453072      11.27680016       79 
Au     43.13041365       1.37889326      11.27680016       79 
Au     41.64354566       9.10519251      11.27680016       79 
Au     43.13041365       6.52955505      11.27680016       79 
Au     41.64354566      14.25585430      11.27680016       79 
Au     43.13041365      11.68021684      11.27680016       79 
Au     41.64354566      19.40651609      11.27680016       79 
Au     43.13041365      16.83087863      11.27680016       79 
Au     44.61728164       3.95453072      11.27680016       79 
Au     46.10414962       1.37889326      11.27680016       79 
Au     44.61728164       9.10519251      11.27680016       79 
Au     46.10414962       6.52955505      11.27680016       79 
Au     44.61728164      14.25585430      11.27680016       79 
Au     46.10414962      11.68021684      11.27680016       79 
Au     44.61728164      19.40651609      11.27680016       79 
Au     46.10414962      16.83087863      11.27680016       79 
Au     47.59101761       3.95453072      11.27680016       79 
Au     49.07788559       1.37889326      11.27680016       79 
Au     47.59101761       9.10519251      11.27680016       79 
Au     49.07788559       6.52955505      11.27680016       79 
Au     47.59101761      14.25585430      11.27680016       79 
Au     49.07788559      11.68021684      11.27680016       79 
Au     47.59101761      19.40651609      11.27680016       79 
Au     49.07788559      16.83087863      11.27680016       79 
Au     50.56475358       3.95453072      11.27680016       79 
Au     52.05162156       1.37889326      11.27680016       79 
Au     50.56475358       9.10519251      11.27680016       79 
Au     52.05162156       6.52955505      11.27680016       79 
Au     50.56475358      14.25585430      11.27680016       79 
Au     52.05162156      11.68021684      11.27680016       79 
Au     50.56475358      19.40651609      11.27680016       79 
Au     52.05162156      16.83087863      11.27680016       79 
Au     53.53848955       3.95453072      11.27680016       79 
Au     55.02535753       1.37889326      11.27680016       79 
Au     53.53848955       9.10519251      11.27680016       79 
Au     55.02535753       6.52955505      11.27680016       79 
Au     53.53848955      14.25585430      11.27680016       79 
Au     55.02535753      11.68021684      11.27680016       79 
Au     53.53848955      19.40651609      11.27680016       79 
Au     55.02535753      16.83087863      11.27680016       79 
Au     56.51222552       3.95453072      11.27680016       79 
Au     57.99909350       1.37889326      11.27680016       79 
Au     56.51222552       9.10519251      11.27680016       79 
Au     57.99909350       6.52955505      11.27680016       79 
Au     56.51222552      14.25585430      11.27680016       79 
Au     57.99909350      11.68021684      11.27680016       79 
Au     56.51222552      19.40651609      11.27680016       79 
Au     57.99909350      16.83087863      11.27680016       79 
Au     59.48596149       3.95453072      11.27680016       79 
Au     60.97282948       1.37889326      11.27680016       79 
Au     59.48596149       9.10519251      11.27680016       79 
Au     60.97282948       6.52955505      11.27680016       79 
Au     59.48596149      14.25585430      11.27680016       79 
Au     60.97282948      11.68021684      11.27680016       79 
Au     59.48596149      19.40651609      11.27680016       79 
Au     60.97282948      16.83087863      11.27680016       79 
Au      0.01124207       2.23730183      13.70479965       79 
Au      1.49811006       4.81293917      13.70479965       79 
Au      0.01124207       7.38796362      13.70479965       79 
Au      1.49811006       9.96360096      13.70479965       79 
Au      0.01124207      12.53862541      13.70479965       79 
Au      1.49811006      15.11426275      13.70479965       79 
Au      0.01124207      17.68928720      13.70479965       79 
Au      1.49811006      20.26492454      13.70479965       79 
Au      2.98497804       2.23730183      13.70479965       79 
Au      4.47184603       4.81293917      13.70479965       79 
Au      2.98497804       7.38796362      13.70479965       79 
Au      4.47184603       9.96360096      13.70479965       79 
Au      2.98497804      12.53862541      13.70479965       79 
Au      4.47184603      15.11426275      13.70479965       79 
Au      2.98497804      17.68928720      13.70479965       79 
Au      4.47184603      20.26492454      13.70479965       79 
Au      5.95871401       2.23730183      13.70479965       79 
Au      7.44558200       4.81293917      13.70479965       79 
Au      5.95871401       7.38796362      13.70479965       79 
Au      7.44558200       9.96360096      13.70479965       79 
Au      5.95871401      12.53862541      13.70479965       79 
Au      7.44558200      15.11426275      13.70479965       79 
Au      5.95871401      17.68928720      13.70479965       79 
Au      7.44558200      20.26492454      13.70479965       79 
Au      8.93244998       2.23730183      13.70479965       79 
Au     10.41931797       4.81293917      13.70479965       79 
Au      8.93244998       7.38796362      13.70479965       79 
Au     10.41931797       9.96360096      13.70479965       79 
Au      8.93244998      12.53862541      13.70479965       79 
Au     10.41931797      15.11426275      13.70479965       79 
Au      8.93244998      17.68928720      13.70479965       79 
Au     10.41931797      20.26492454      13.70479965       79 
Au     11.90618595       2.23730183      13.70479965       79 
Au     13.39305394       4.81293917      13.70479965       79 
Au     11.90618595       7.38796362      13.70479965       79 
Au     13.39305394       9.96360096      13.70479965       79 
Au     11.90618595      12.53862541      13.70479965       79 
Au     13.39305394      15.11426275      13.70479965       79 
Au     11.90618595      17.68928720      13.70479965       79 
Au     13.39305394      20.26492454      13.70479965       79 
Au     14.87992193       2.23730183      13.70479965       79 
Au     16.36678991       4.81293917      13.70479965       79 
Au     14.87992193       7.38796362      13.70479965       79 
Au     16.36678991       9.96360096      13.70479965       79 
Au     14.87992193      12.53862541      13.70479965       79 
Au     16.36678991      15.11426275      13.70479965       79 
Au     14.87992193      17.68928720      13.70479965       79 
Au     16.36678991      20.26492454      13.70479965       79 
Au     17.85365790       2.23730183      13.70479965       79 
Au     19.34052588       4.81293917      13.70479965       79 
Au     17.85365790       7.38796362      13.70479965       79 
Au     19.34052588       9.96360096      13.70479965       79 
Au     17.85365790      12.53862541      13.70479965       79 
Au     19.34052588      15.11426275      13.70479965       79 
Au     17.85365790      17.68928720      13.70479965       79 
Au     19.34052588      20.26492454      13.70479965       79 
Au     20.82739387       2.23730183      13.70479965       79 
Au     22.31426185       4.81293917      13.70479965       79 
Au     20.82739387       7.38796362      13.70479965       79 
Au     22.31426185       9.96360096      13.70479965       79 
Au     20.82739387      12.53862541      13.70479965       79 
Au     22.31426185      15.11426275      13.70479965       79 
Au     20.82739387      17.68928720      13.70479965       79 
Au     22.31426185      20.26492454      13.70479965       79 
Au     23.80112984       2.23730183      13.70479965       79 
Au     25.28799782       4.81293917      13.70479965       79 
Au     23.80112984       7.38796362      13.70479965       79 
Au     25.28799782       9.96360096      13.70479965       79 
Au     23.80112984      12.53862541      13.70479965       79 
Au     25.28799782      15.11426275      13.70479965       79 
Au     23.80112984      17.68928720      13.70479965       79 
Au     25.28799782      20.26492454      13.70479965       79 
Au     26.77486581       2.23730183      13.70479965       79 
Au     28.26173379       4.81293917      13.70479965       79 
Au     26.77486581       7.38796362      13.70479965       79 
Au     28.26173379       9.96360096      13.70479965       79 
Au     26.77486581      12.53862541      13.70479965       79 
Au     28.26173379      15.11426275      13.70479965       79 
Au     26.77486581      17.68928720      13.70479965       79 
Au     28.26173379      20.26492454      13.70479965       79 
Au     29.74860178       2.23730183      13.70479965       79 
Au     31.23546977       4.81293917      13.70479965       79 
Au     29.74860178       7.38796362      13.70479965       79 
Au     31.23546977       9.96360096      13.70479965       79 
Au     29.74860178      12.53862541      13.70479965       79 
Au     31.23546977      15.11426275      13.70479965       79 
Au     29.74860178      17.68928720      13.70479965       79 
Au     31.23546977      20.26492454      13.70479965       79 
Au     32.72233775       2.23730183      13.70479965       79 
Au     34.20920574       4.81293917      13.70479965       79 
Au     32.72233775       7.38796362      13.70479965       79 
Au     34.20920574       9.96360096      13.70479965       79 
Au     32.72233775      12.53862541      13.70479965       79 
Au     34.20920574      15.11426275      13.70479965       79 
Au     32.72233775      17.68928720      13.70479965       79 
Au     34.20920574      20.26492454      13.70479965       79 
Au     35.69607372       2.23730183      13.70479965       79 
Au     37.18294171       4.81293917      13.70479965       79 
Au     35.69607372       7.38796362      13.70479965       79 
Au     37.18294171       9.96360096      13.70479965       79 
Au     35.69607372      12.53862541      13.70479965       79 
Au     37.18294171      15.11426275      13.70479965       79 
Au     35.69607372      17.68928720      13.70479965       79 
Au     37.18294171      20.26492454      13.70479965       79 
Au     38.66980969       2.23730183      13.70479965       79 
Au     40.15667768       4.81293917      13.70479965       79 
Au     38.66980969       7.38796362      13.70479965       79 
Au     40.15667768       9.96360096      13.70479965       79 
Au     38.66980969      12.53862541      13.70479965       79 
Au     40.15667768      15.11426275      13.70479965       79 
Au     38.66980969      17.68928720      13.70479965       79 
Au     40.15667768      20.26492454      13.70479965       79 
Au     41.64354566       2.23730183      13.70479965       79 
Au     43.13041365       4.81293917      13.70479965       79 
Au     41.64354566       7.38796362      13.70479965       79 
Au     43.13041365       9.96360096      13.70479965       79 
Au     41.64354566      12.53862541      13.70479965       79 
Au     43.13041365      15.11426275      13.70479965       79 
Au     41.64354566      17.68928720      13.70479965       79 
Au     43.13041365      20.26492454      13.70479965       79 
Au     44.61728164       2.23730183      13.70479965       79 
Au     46.10414962       4.81293917      13.70479965       79 
Au     44.61728164       7.38796362      13.70479965       79 
Au     46.10414962       9.96360096      13.70479965       79 
Au     44.61728164      12.53862541      13.70479965       79 
Au     46.10414962      15.11426275      13.70479965       79 
Au     44.61728164      17.68928720      13.70479965       79 
Au     46.10414962      20.26492454      13.70479965       79 
Au     47.59101761       2.23730183      13.70479965       79 
Au     49.07788559       4.81293917      13.70479965       79 
Au     47.59101761       7.38796362      13.70479965       79 
Au     49.07788559       9.96360096      13.70479965       79 
Au     47.59101761      12.53862541      13.70479965       79 
Au     49.07788559      15.11426275      13.70479965       79 
Au     47.59101761      17.68928720      13.70479965       79 
Au     49.07788559      20.26492454      13.70479965       79 
Au     50.56475358       2.23730183      13.70479965       79 
Au     52.05162156       4.81293917      13.70479965       79 
Au     50.56475358       7.38796362      13.70479965       79 
Au     52.05162156       9.96360096      13.70479965       79 
Au     50.56475358      12.53862541      13.70479965       79 
Au     52.05162156      15.11426275      13.70479965       79 
Au     50.56475358      17.68928720      13.70479965       79 
Au     52.05162156      20.26492454      13.70479965       79 
Au     53.53848955       2.23730183      13.70479965       79 
Au     55.02535753       4.81293917      13.70479965       79 
Au     53.53848955       7.38796362      13.70479965       79 
Au     55.02535753       9.96360096      13.70479965       79 
Au     53.53848955      12.53862541      13.70479965       79 
Au     55.02535753      15.11426275      13.70479965       79 
Au     53.53848955      17.68928720      13.70479965       79 
Au     55.02535753      20.26492454      13.70479965       79 
Au     56.51222552       2.23730183      13.70479965       79 
Au     57.99909350       4.81293917      13.70479965       79 
Au     56.51222552       7.38796362      13.70479965       79 
Au     57.99909350       9.96360096      13.70479965       79 
Au     56.51222552      12.53862541      13.70479965       79 
Au     57.99909350      15.11426275      13.70479965       79 
Au     56.51222552      17.68928720      13.70479965       79 
Au     57.99909350      20.26492454      13.70479965       79 
Au     59.48596149       2.23730183      13.70479965       79 
Au     60.97282948       4.81293917      13.70479965       79 
Au     59.48596149       7.38796362      13.70479965       79 
Au     60.97282948       9.96360096      13.70479965       79 
Au     59.48596149      12.53862541      13.70479965       79 
Au     60.97282948      15.11426275      13.70479965       79 
Au     59.48596149      17.68928720      13.70479965       79 
Au     60.97282948      20.26492454      13.70479965       79 
Au      1.49811006       3.09598490      16.07339287       79 
Au      1.49811006       8.24664669      16.07339287       79 
Au      1.49811006      13.39730848      16.07339287       79 
Au      1.49811006      18.54797027      16.07339287       79 
Au      4.47184603       3.09598490      16.07339287       79 
Au      4.47184603       8.24664669      16.07339287       79 
Au      4.47184603      13.39730848      16.07339287       79 
Au      4.47184603      18.54797027      16.07339287       79 
Au      7.44558200       3.09598490      16.07339287       79 
Au      7.44558200       8.24664669      16.07339287       79 
Au      7.44558200      13.39730848      16.07339287       79 
Au      7.44558200      18.54797027      16.07339287       79 
Au     10.41931797       3.09598490      16.07339287       79 
Au     10.41931797       8.24664669      16.07339287       79 
Au     10.41931797      13.39730848      16.07339287       79 
Au     10.41931797      18.54797027      16.07339287       79 
Au     13.39305394       3.09598490      16.07339287       79 
Au     13.39305394       8.24664669      16.07339287       79 
Au     13.39305394      13.39730848      16.07339287       79 
Au     13.39305394      18.54797027      16.07339287       79 
Au     16.36678991       3.09598490      16.07339287       79 
Au     16.36678991       8.24664669      16.07339287       79 
Au     16.36678991      13.39730848      16.07339287       79 
Au     16.36678991      18.54797027      16.07339287       79 
Au     19.34052588       3.09598490      16.07339287       79 
Au     19.34052588       8.24664669      16.07339287       79 
Au     19.34052588      13.39730848      16.07339287       79 
Au     19.34052588      18.54797027      16.07339287       79 
Au     22.31426185       3.09598490      16.07339287       79 
Au     22.31426185       8.24664669      16.07339287       79 
Au     22.31426185      13.39730848      16.07339287       79 
Au     22.31426185      18.54797027      16.07339287       79 
Au     25.28799782       3.09598490      16.07339287       79 
Au     25.28799782       8.24664669      16.07339287       79 
Au     25.28799782      13.39730848      16.07339287       79 
Au     25.28799782      18.54797027      16.07339287       79 
Au     28.26173379       3.09598490      16.07339287       79 
Au     28.26173379       8.24664669      16.07339287       79 
Au     28.26173379      13.39730848      16.07339287       79 
Au     28.26173379      18.54797027      16.07339287       79 
Au     31.23546977       3.09598490      16.07339287       79 
Au     31.23546977       8.24664669      16.07339287       79 
Au     31.23546977      13.39730848      16.07339287       79 
Au     31.23546977      18.54797027      16.07339287       79 
Au     34.20920574       3.09598490      16.07339287       79 
Au     34.20920574       8.24664669      16.07339287       79 
Au     34.20920574      13.39730848      16.07339287       79 
Au     34.20920574      18.54797027      16.07339287       79 
Au     37.18294171       3.09598490      16.07339287       79 
Au     37.18294171       8.24664669      16.07339287       79 
Au     37.18294171      13.39730848      16.07339287       79 
Au     37.18294171      18.54797027      16.07339287       79 
Au     40.15667768       3.09598490      16.07339287       79 
Au     40.15667768       8.24664669      16.07339287       79 
Au     40.15667768      13.39730848      16.07339287       79 
Au     40.15667768      18.54797027      16.07339287       79 
Au     43.13041365       3.09598490      16.07339287       79 
Au     43.13041365       8.24664669      16.07339287       79 
Au     43.13041365      13.39730848      16.07339287       79 
Au     43.13041365      18.54797027      16.07339287       79 
Au     46.10414962       3.09598490      16.07339287       79 
Au     46.10414962       8.24664669      16.07339287       79 
Au     46.10414962      13.39730848      16.07339287       79 
Au     46.10414962      18.54797027      16.07339287       79 
Au     49.07788559       3.09598490      16.07339287       79 
Au     49.07788559       8.24664669      16.07339287       79 
Au     49.07788559      13.39730848      16.07339287       79 
Au     49.07788559      18.54797027      16.07339287       79 
Au     52.05162156       3.09598490      16.07339287       79 
Au     52.05162156       8.24664669      16.07339287       79 
Au     52.05162156      13.39730848      16.07339287       79 
Au     52.05162156      18.54797027      16.07339287       79 
Au     55.02535753       3.09598490      16.07339287       79 
Au     55.02535753       8.24664669      16.07339287       79 
Au     55.02535753      13.39730848      16.07339287       79 
Au     55.02535753      18.54797027      16.07339287       79 
Au     57.99909350       3.09598490      16.07339287       79 
Au     57.99909350       8.24664669      16.07339287       79 
Au     57.99909350      13.39730848      16.07339287       79 
Au     57.99909350      18.54797027      16.07339287       79 
Au     60.97282948       3.09598490      16.07339287       79 
Au     60.97282948       8.24664669      16.07339287       79 
Au     60.97282948      13.39730848      16.07339287       79 
Au     60.97282948      18.54797027      16.07339287       79 
Au      0.01124207       0.52034744      16.07358170       79 
Au      0.01124207       5.67100923      16.07358170       79 
Au      0.01124207      10.82167102      16.07358170       79 
Au      0.01124207      15.97233281      16.07358170       79 
Au      2.98497804       0.52034744      16.07358170       79 
Au      2.98497804       5.67100923      16.07358170       79 
Au      2.98497804      10.82167102      16.07358170       79 
Au      2.98497804      15.97233281      16.07358170       79 
Au      5.95871401       0.52034744      16.07358170       79 
Au      5.95871401       5.67100923      16.07358170       79 
Au      5.95871401      10.82167102      16.07358170       79 
Au      5.95871401      15.97233281      16.07358170       79 
Au      8.93244998       0.52034744      16.07358170       79 
Au      8.93244998       5.67100923      16.07358170       79 
Au      8.93244998      10.82167102      16.07358170       79 
Au      8.93244998      15.97233281      16.07358170       79 
Au     11.90618595       0.52034744      16.07358170       79 
Au     11.90618595       5.67100923      16.07358170       79 
Au     11.90618595      10.82167102      16.07358170       79 
Au     11.90618595      15.97233281      16.07358170       79 
Au     14.87992193       0.52034744      16.07358170       79 
Au     14.87992193       5.67100923      16.07358170       79 
Au     14.87992193      10.82167102      16.07358170       79 
Au     14.87992193      15.97233281      16.07358170       79 
Au     17.85365790       0.52034744      16.07358170       79 
Au     17.85365790       5.67100923      16.07358170       79 
Au     17.85365790      10.82167102      16.07358170       79 
Au     17.85365790      15.97233281      16.07358170       79 
Au     20.82739387       0.52034744      16.07358170       79 
Au     20.82739387       5.67100923      16.07358170       79 
Au     20.82739387      10.82167102      16.07358170       79 
Au     20.82739387      15.97233281      16.07358170       79 
Au     23.80112984       0.52034744      16.07358170       79 
Au     23.80112984       5.67100923      16.07358170       79 
Au     23.80112984      10.82167102      16.07358170       79 
Au     23.80112984      15.97233281      16.07358170       79 
Au     26.77486581       0.52034744      16.07358170       79 
Au     26.77486581       5.67100923      16.07358170       79 
Au     26.77486581      10.82167102      16.07358170       79 
Au     26.77486581      15.97233281      16.07358170       79 
Au     29.74860178       0.52034744      16.07358170       79 
Au     29.74860178       5.67100923      16.07358170       79 
Au     29.74860178      10.82167102      16.07358170       79 
Au     29.74860178      15.97233281      16.07358170       79 
Au     32.72233775       0.52034744      16.07358170       79 
Au     32.72233775       5.67100923      16.07358170       79 
Au     32.72233775      10.82167102      16.07358170       79 
Au     32.72233775      15.97233281      16.07358170       79 
Au     35.69607372       0.52034744      16.07358170       79 
Au     35.69607372       5.67100923      16.07358170       79 
Au     35.69607372      10.82167102      16.07358170       79 
Au     35.69607372      15.97233281      16.07358170       79 
Au     38.66980969       0.52034744      16.07358170       79 
Au     38.66980969       5.67100923      16.07358170       79 
Au     38.66980969      10.82167102      16.07358170       79 
Au     38.66980969      15.97233281      16.07358170       79 
Au     41.64354566       0.52034744      16.07358170       79 
Au     41.64354566       5.67100923      16.07358170       79 
Au     41.64354566      10.82167102      16.07358170       79 
Au     41.64354566      15.97233281      16.07358170       79 
Au     44.61728164       0.52034744      16.07358170       79 
Au     44.61728164       5.67100923      16.07358170       79 
Au     44.61728164      10.82167102      16.07358170       79 
Au     44.61728164      15.97233281      16.07358170       79 
Au     47.59101761       0.52034744      16.07358170       79 
Au     47.59101761       5.67100923      16.07358170       79 
Au     47.59101761      10.82167102      16.07358170       79 
Au     47.59101761      15.97233281      16.07358170       79 
Au     50.56475358       0.52034744      16.07358170       79 
Au     50.56475358       5.67100923      16.07358170       79 
Au     50.56475358      10.82167102      16.07358170       79 
Au     50.56475358      15.97233281      16.07358170       79 
Au     53.53848955       0.52034744      16.07358170       79 
Au     53.53848955       5.67100923      16.07358170       79 
Au     53.53848955      10.82167102      16.07358170       79 
Au     53.53848955      15.97233281      16.07358170       79 
Au     56.51222552       0.52034744      16.07358170       79 
Au     56.51222552       5.67100923      16.07358170       79 
Au     56.51222552      10.82167102      16.07358170       79 
Au     56.51222552      15.97233281      16.07358170       79 
Au     59.48596149       0.52034744      16.07358170       79 
Au     59.48596149       5.67100923      16.07358170       79 
Au     59.48596149      10.82167102      16.07358170       79 
Au     59.48596149      15.97233281      16.07358170       79 
Au      0.01124207       3.95453072      18.49351692       79 
Au      0.01124207       9.10519251      18.49351692       79 
Au      0.01124207      14.25585430      18.49351692       79 
Au      0.01124207      19.40651609      18.49351692       79 
Au      2.98497804       3.95453072      18.49351692       79 
Au      2.98497804       9.10519251      18.49351692       79 
Au      2.98497804      14.25585430      18.49351692       79 
Au      2.98497804      19.40651609      18.49351692       79 
Au      5.95871401       3.95453072      18.49351692       79 
Au      5.95871401       9.10519251      18.49351692       79 
Au      5.95871401      14.25585430      18.49351692       79 
Au      5.95871401      19.40651609      18.49351692       79 
Au      8.93244998       3.95453072      18.49351692       79 
Au      8.93244998       9.10519251      18.49351692       79 
Au      8.93244998      14.25585430      18.49351692       79 
Au      8.93244998      19.40651609      18.49351692       79 
Au     11.90618595       3.95453072      18.49351692       79 
Au     11.90618595       9.10519251      18.49351692       79 
Au     11.90618595      14.25585430      18.49351692       79 
Au     11.90618595      19.40651609      18.49351692       79 
Au     14.87992193       3.95453072      18.49351692       79 
Au     14.87992193       9.10519251      18.49351692       79 
Au     14.87992193      14.25585430      18.49351692       79 
Au     14.87992193      19.40651609      18.49351692       79 
Au     17.85365790       3.95453072      18.49351692       79 
Au     17.85365790       9.10519251      18.49351692       79 
Au     17.85365790      14.25585430      18.49351692       79 
Au     17.85365790      19.40651609      18.49351692       79 
Au     20.82739387       3.95453072      18.49351692       79 
Au     20.82739387       9.10519251      18.49351692       79 
Au     20.82739387      14.25585430      18.49351692       79 
Au     20.82739387      19.40651609      18.49351692       79 
Au     23.80112984       3.95453072      18.49351692       79 
Au     23.80112984       9.10519251      18.49351692       79 
Au     23.80112984      14.25585430      18.49351692       79 
Au     23.80112984      19.40651609      18.49351692       79 
Au     26.77486581       3.95453072      18.49351692       79 
Au     26.77486581       9.10519251      18.49351692       79 
Au     26.77486581      14.25585430      18.49351692       79 
Au     26.77486581      19.40651609      18.49351692       79 
Au     29.74860178       3.95453072      18.49351692       79 
Au     29.74860178       9.10519251      18.49351692       79 
Au     29.74860178      14.25585430      18.49351692       79 
Au     29.74860178      19.40651609      18.49351692       79 
Au     32.72233775       3.95453072      18.49351692       79 
Au     32.72233775       9.10519251      18.49351692       79 
Au     32.72233775      14.25585430      18.49351692       79 
Au     32.72233775      19.40651609      18.49351692       79 
Au     35.69607372       3.95453072      18.49351692       79 
Au     35.69607372       9.10519251      18.49351692       79 
Au     35.69607372      14.25585430      18.49351692       79 
Au     35.69607372      19.40651609      18.49351692       79 
Au     38.66980969       3.95453072      18.49351692       79 
Au     38.66980969       9.10519251      18.49351692       79 
Au     38.66980969      14.25585430      18.49351692       79 
Au     38.66980969      19.40651609      18.49351692       79 
Au     41.64354566       3.95453072      18.49351692       79 
Au     41.64354566       9.10519251      18.49351692       79 
Au     41.64354566      14.25585430      18.49351692       79 
Au     41.64354566      19.40651609      18.49351692       79 
Au     44.61728164       3.95453072      18.49351692       79 
Au     44.61728164       9.10519251      18.49351692       79 
Au     44.61728164      14.25585430      18.49351692       79 
Au     44.61728164      19.40651609      18.49351692       79 
Au     47.59101761       3.95453072      18.49351692       79 
Au     47.59101761       9.10519251      18.49351692       79 
Au     47.59101761      14.25585430      18.49351692       79 
Au     47.59101761      19.40651609      18.49351692       79 
Au     50.56475358       3.95453072      18.49351692       79 
Au     50.56475358       9.10519251      18.49351692       79 
Au     50.56475358      14.25585430      18.49351692       79 
Au     50.56475358      19.40651609      18.49351692       79 
Au     53.53848955       3.95453072      18.49351692       79 
Au     53.53848955       9.10519251      18.49351692       79 
Au     53.53848955      14.25585430      18.49351692       79 
Au     53.53848955      19.40651609      18.49351692       79 
Au     56.51222552       3.95453072      18.49351692       79 
Au     56.51222552       9.10519251      18.49351692       79 
Au     56.51222552      14.25585430      18.49351692       79 
Au     56.51222552      19.40651609      18.49351692       79 
Au     59.48596149       3.95453072      18.49351692       79 
Au     59.48596149       9.10519251      18.49351692       79 
Au     59.48596149      14.25585430      18.49351692       79 
Au     59.48596149      19.40651609      18.49351692       79 
Au      1.49811006       1.37889326      18.49581718       79 
Au      1.49811006       6.52955505      18.49581718       79 
Au      1.49811006      11.68021684      18.49581718       79 
Au      1.49811006      16.83087863      18.49581718       79 
Au      4.47184603       1.37889326      18.49581718       79 
Au      4.47184603       6.52955505      18.49581718       79 
Au      4.47184603      11.68021684      18.49581718       79 
Au      4.47184603      16.83087863      18.49581718       79 
Au      7.44558200       1.37889326      18.49581718       79 
Au      7.44558200       6.52955505      18.49581718       79 
Au      7.44558200      11.68021684      18.49581718       79 
Au      7.44558200      16.83087863      18.49581718       79 
Au     10.41931797       1.37889326      18.49581718       79 
Au     10.41931797       6.52955505      18.49581718       79 
Au     10.41931797      11.68021684      18.49581718       79 
Au     10.41931797      16.83087863      18.49581718       79 
Au     13.39305394       1.37889326      18.49581718       79 
Au     13.39305394       6.52955505      18.49581718       79 
Au     13.39305394      11.68021684      18.49581718       79 
Au     13.39305394      16.83087863      18.49581718       79 
Au     16.36678991       1.37889326      18.49581718       79 
Au     16.36678991       6.52955505      18.49581718       79 
Au     16.36678991      11.68021684      18.49581718       79 
Au     16.36678991      16.83087863      18.49581718       79 
Au     19.34052588       1.37889326      18.49581718       79 
Au     19.34052588       6.52955505      18.49581718       79 
Au     19.34052588      11.68021684      18.49581718       79 
Au     19.34052588      16.83087863      18.49581718       79 
Au     22.31426185       1.37889326      18.49581718       79 
Au     22.31426185       6.52955505      18.49581718       79 
Au     22.31426185      11.68021684      18.49581718       79 
Au     22.31426185      16.83087863      18.49581718       79 
Au     25.28799782       1.37889326      18.49581718       79 
Au     25.28799782       6.52955505      18.49581718       79 
Au     25.28799782      11.68021684      18.49581718       79 
Au     25.28799782      16.83087863      18.49581718       79 
Au     28.26173379       1.37889326      18.49581718       79 
Au     28.26173379       6.52955505      18.49581718       79 
Au     28.26173379      11.68021684      18.49581718       79 
Au     28.26173379      16.83087863      18.49581718       79 
Au     31.23546977       1.37889326      18.49581718       79 
Au     31.23546977       6.52955505      18.49581718       79 
Au     31.23546977      11.68021684      18.49581718       79 
Au     31.23546977      16.83087863      18.49581718       79 
Au     34.20920574       1.37889326      18.49581718       79 
Au     34.20920574       6.52955505      18.49581718       79 
Au     34.20920574      11.68021684      18.49581718       79 
Au     34.20920574      16.83087863      18.49581718       79 
Au     37.18294171       1.37889326      18.49581718       79 
Au     37.18294171       6.52955505      18.49581718       79 
Au     37.18294171      11.68021684      18.49581718       79 
Au     37.18294171      16.83087863      18.49581718       79 
Au     40.15667768       1.37889326      18.49581718       79 
Au     40.15667768       6.52955505      18.49581718       79 
Au     40.15667768      11.68021684      18.49581718       79 
Au     40.15667768      16.83087863      18.49581718       79 
Au     43.13041365       1.37889326      18.49581718       79 
Au     43.13041365       6.52955505      18.49581718       79 
Au     43.13041365      11.68021684      18.49581718       79 
Au     43.13041365      16.83087863      18.49581718       79 
Au     46.10414962       1.37889326      18.49581718       79 
Au     46.10414962       6.52955505      18.49581718       79 
Au     46.10414962      11.68021684      18.49581718       79 
Au     46.10414962      16.83087863      18.49581718       79 
Au     49.07788559       1.37889326      18.49581718       79 
Au     49.07788559       6.52955505      18.49581718       79 
Au     49.07788559      11.68021684      18.49581718       79 
Au     49.07788559      16.83087863      18.49581718       79 
Au     52.05162156       1.37889326      18.49581718       79 
Au     52.05162156       6.52955505      18.49581718       79 
Au     52.05162156      11.68021684      18.49581718       79 
Au     52.05162156      16.83087863      18.49581718       79 
Au     55.02535753       1.37889326      18.49581718       79 
Au     55.02535753       6.52955505      18.49581718       79 
Au     55.02535753      11.68021684      18.49581718       79 
Au     55.02535753      16.83087863      18.49581718       79 
Au     57.99909350       1.37889326      18.49581718       79 
Au     57.99909350       6.52955505      18.49581718       79 
Au     57.99909350      11.68021684      18.49581718       79 
Au     57.99909350      16.83087863      18.49581718       79 
Au     60.97282948       1.37889326      18.49581718       79 
Au     60.97282948       6.52955505      18.49581718       79 
Au     60.97282948      11.68021684      18.49581718       79 
Au     60.97282948      16.83087863      18.49581718       79 
