142
Lattice="9.81999180292937 -1.57917512379296e-15 0.0 0.0 17.0087247325836 0.0 0.0 0.0 10.804" Properties=species:S:1:pos:R:3 pbc="T T T"
O       1.38650516       1.12431739       0.62933000 
O       3.84150311       5.37649857       0.62933000 
O       0.78805795       4.89077118       4.23066333 
O       3.24305590       0.63859000       4.23066333 
O       0.28043484       6.74145498       2.42999667 
O       2.73543279       2.48927380       2.42999667 
O       1.38650516       7.38004498       4.77267000 
O       3.84150311       3.12786380       4.77267000 
O       0.78805795       3.61359118       1.17133667 
O       3.24305590       7.86577237       1.17133667 
O       0.28043484       1.76290739       2.97200333 
O       2.73543279       6.01508857       2.97200333 
Si       2.36063135      -0.00000000       0.00000000 
Si       4.81562931       4.25218118       0.00000000 
Si       1.27468227       6.29654791       3.60133333 
Si       3.72968022       2.04436672       3.60133333 
Si       1.27468227       2.20781446       1.80066667 
Si       3.72968022       6.45999564       1.80066667 
O       6.29650106       1.12431739       0.62933000 
O       8.75149901       5.37649857       0.62933000 
O       5.69805385       4.89077118       4.23066333 
O       8.15305180       0.63859000       4.23066333 
O       5.19043074       6.74145498       2.42999667 
O       7.64542869       2.48927380       2.42999667 
O       6.29650106       7.38004498       4.77267000 
O       8.75149901       3.12786380       4.77267000 
O       5.69805385       3.61359118       1.17133667 
O       8.15305180       7.86577237       1.17133667 
O       5.19043074       1.76290739       2.97200333 
O       7.64542869       6.01508857       2.97200333 
Si       7.27062726      -0.00000000       0.00000000 
Si       9.72562521       4.25218118       0.00000000 
Si       6.18467817       6.29654791       3.60133333 
Si       8.63967613       2.04436672       3.60133333 
Si       6.18467817       2.20781446       1.80066667 
Si       8.63967613       6.45999564       1.80066667 
O       1.38650516       9.62867975       0.62933000 
O       3.84150311      13.88086094       0.62933000 
O       0.78805795      13.39513355       4.23066333 
O       3.24305590       9.14295237       4.23066333 
O       0.28043484      15.24581735       2.42999667 
O       2.73543279      10.99363616       2.42999667 
O       1.38650516      15.88440735       4.77267000 
O       3.84150311      11.63222616       4.77267000 
O       0.78805795      12.11795355       1.17133667 
O       3.24305590      16.37013473       1.17133667 
O       0.28043484      10.26726975       2.97200333 
O       2.73543279      14.51945094       2.97200333 
Si       2.36063135       8.50436237       0.00000000 
Si       4.81562931      12.75654355       0.00000000 
Si       1.27468227      14.80091027       3.60133333 
Si       3.72968022      10.54872909       3.60133333 
Si       1.27468227      10.71217683       1.80066667 
Si       3.72968022      14.96435801       1.80066667 
O       6.29650106       9.62867975       0.62933000 
O       8.75149901      13.88086094       0.62933000 
O       5.69805385      13.39513355       4.23066333 
O       8.15305180       9.14295237       4.23066333 
O       5.19043074      15.24581735       2.42999667 
O       7.64542869      10.99363616       2.42999667 
O       6.29650106      15.88440735       4.77267000 
O       8.75149901      11.63222616       4.77267000 
O       5.69805385      12.11795355       1.17133667 
O       8.15305180      16.37013473       1.17133667 
O       7.64542869      14.51945094       2.97200333 
Si       7.27062726       8.50436237       0.00000000 
Si       9.72562521      12.75654355       0.00000000 
Si       6.18467817      14.80091027       3.60133333 
Si       8.63967613      10.54872909       3.60133333 
Si       6.18467817      10.71217683       1.80066667 
Si       8.63967613      14.96435801       1.80066667 
O       1.38650516       1.12431739       6.03133000 
O       3.84150311       5.37649857       6.03133000 
O       0.78805795       4.89077118       9.63266333 
O       3.24305590       0.63859000       9.63266333 
O       0.28043484       6.74145498       7.83199667 
O       2.73543279       2.48927380       7.83199667 
O       1.38650516       7.38004498      10.17467000 
O       3.84150311       3.12786380      10.17467000 
O       0.78805795       3.61359118       6.57333667 
O       3.24305590       7.86577237       6.57333667 
O       0.28043484       1.76290739       8.37400333 
O       2.73543279       6.01508857       8.37400333 
Si       2.36063135      -0.00000000       5.40200000 
Si       4.81562931       4.25218118       5.40200000 
Si       1.27468227       6.29654791       9.00333333 
Si       3.72968022       2.04436672       9.00333333 
Si       1.27468227       2.20781446       7.20266667 
Si       3.72968022       6.45999564       7.20266667 
O       6.29650106       1.12431739       6.03133000 
O       8.75149901       5.37649857       6.03133000 
O       5.69805385       4.89077118       9.63266333 
O       8.15305180       0.63859000       9.63266333 
O       5.19043074       6.74145498       7.83199667 
O       7.64542869       2.48927380       7.83199667 
O       6.29650106       7.38004498      10.17467000 
O       8.75149901       3.12786380      10.17467000 
O       5.69805385       3.61359118       6.57333667 
O       8.15305180       7.86577237       6.57333667 
O       5.19043074       1.76290739       8.37400333 
O       7.64542869       6.01508857       8.37400333 
Si       7.27062726      -0.00000000       5.40200000 
Si       9.72562521       4.25218118       5.40200000 
Si       6.18467817       6.29654791       9.00333333 
Si       8.63967613       2.04436672       9.00333333 
Si       6.18467817       2.20781446       7.20266667 
Si       8.63967613       6.45999564       7.20266667 
O       1.38650516       9.62867975       6.03133000 
O       3.84150311      13.88086094       6.03133000 
O       0.78805795      13.39513355       9.63266333 
O       0.28043484      15.24581735       7.83199667 
O       2.73543279      10.99363616       7.83199667 
O       1.38650516      15.88440735      10.17467000 
O       3.84150311      11.63222616      10.17467000 
O       0.78805795      12.11795355       6.57333667 
O       3.24305590      16.37013473       6.57333667 
O       0.28043484      10.26726975       8.37400333 
O       2.73543279      14.51945094       8.37400333 
Si       2.36063135       8.50436237       5.40200000 
Si       4.81562931      12.75654355       5.40200000 
Si       1.27468227      14.80091027       9.00333333 
Si       3.72968022      10.54872909       9.00333333 
Si       1.27468227      10.71217683       7.20266667 
Si       3.72968022      14.96435801       7.20266667 
O       6.29650106       9.62867975       6.03133000 
O       8.75149901      13.88086094       6.03133000 
O       5.69805385      13.39513355       9.63266333 
O       8.15305180       9.14295237       9.63266333 
O       5.19043074      15.24581735       7.83199667 
O       7.64542869      10.99363616       7.83199667 
O       6.29650106      15.88440735      10.17467000 
O       8.75149901      11.63222616      10.17467000 
O       5.69805385      12.11795355       6.57333667 
O       8.15305180      16.37013473       6.57333667 
O       5.19043074      10.26726975       8.37400333 
O       7.64542869      14.51945094       8.37400333 
Si       7.27062726       8.50436237       5.40200000 
Si       9.72562521      12.75654355       5.40200000 
Si       6.18467817      14.80091027       9.00333333 
Si       8.63967613      10.54872909       9.00333333 
Si       6.18467817      10.71217683       7.20266667 
Si       8.63967613      14.96435801       7.20266667 
