 DBCSR| Multiplication driver                                                SMM
 DBCSR| Multrec recursion limit                                              512
 DBCSR| Multiplication stack size                                          30000
 DBCSR| Maximum elements for images                                    UNLIMITED
 DBCSR| Multiplicative factor virtual images                                   1
 DBCSR| Multiplication size stacks                                             3
 DBCSR| Number of 3D layers                                               SINGLE
 DBCSR| Use MPI memory allocation                                              F
 DBCSR| Use RMA algorithm                                                      F
 DBCSR| Use Communication thread                                               T
 DBCSR| Communication thread load                                             87
 DBCSR| ACC: Number of devices/node                                            1
 DBCSR| ACC: Number of priority stack-buffers                                 40
 DBCSR| ACC: Number of posterior stack-buffers                                80
 DBCSR| ACC: Number of priority streams                                        4
 DBCSR| ACC: Number of posterior streams                                       4
 DBCSR| ACC: Avoid driver after busy                                           F
 DBCSR| ACC: Process inhomogenous stacks                                       T
 DBCSR| ACC: Min. flop for processing                                          0
 DBCSR| ACC: Min. flop for sorting                                          4000
 DBCSR| ACC: Number of binning bins                                         4096
 DBCSR| ACC: Size of binning bins                                             16


  **** **** ******  **  PROGRAM STARTED AT               2019-05-20 11:26:28.654
 ***** ** ***  *** **   PROGRAM STARTED ON                              nid04443
 **    ****   ******    PROGRAM STARTED BY                                   cpi
 ***** **    ** ** **   PROGRAM PROCESS ID                                 27999
  **** **  *******  **  PROGRAM STARTED IN /scratch/snx3000/cpi/exercise_12/TASK
                                           _1/STM

 CP2K| version string:                                          CP2K version 6.1
 CP2K| source code revision number:                                    svn:18464
 CP2K| cp2kflags: omp libint fftw3 libxc elpa=201611 elpa_qr parallel mpi3 scala
 CP2K|            pack acc smm_dnn smm dbcsr_acc
 CP2K| is freely available from                            https://www.cp2k.org/
 CP2K| Program compiled at                         Tue Apr  2 14:18:36 CEST 2019
 CP2K| Program compiled on                                              daint101
 CP2K| Program compiled for                      CP2K-6.1-CrayGNU-18.08-cuda-9.1
 CP2K| Data directory path    /apps/daint/UES/jenkins/6.0.UP07/gpu/easybuild/sof
 CP2K| Input file name                                                  cp2k.inp

 GLOBAL| Force Environment number                                              1
 GLOBAL| Basis set file name                                        BASIS_MOLOPT
 GLOBAL| Potential file name                                           POTENTIAL
 GLOBAL| MM Potential file name                                     MM_POTENTIAL
 GLOBAL| Coordinate file name                                              p.xyz
 GLOBAL| Method name                                                        CP2K
 GLOBAL| Project name                                                       PROJ
 GLOBAL| Preferred FFT library                                             FFTW3
 GLOBAL| Preferred diagonalization lib.                                     ELPA
 GLOBAL| Run type                                                         ENERGY
 GLOBAL| All-to-all communication in single precision                          F
 GLOBAL| FFTs using library dependent lengths                                  T
 GLOBAL| Global print level                                                  LOW
 GLOBAL| Total number of message passing processes                           324
 GLOBAL| Number of threads for this process                                    1
 GLOBAL| This output is from process                                           0
 GLOBAL| CPU model name :  Intel(R) Xeon(R) CPU E5-2690 v3 @ 2.60GHz

 MEMORY| system memory details [Kb]
 MEMORY|                        rank 0           min           max       average
 MEMORY| MemTotal             65844884      65844884      65844884      65844884
 MEMORY| MemFree              60457716      60457716      60998980      60803241
 MEMORY| Buffers                 20644         14676         20644         15738
 MEMORY| Cached                1718524       1268912       1718524       1395432
 MEMORY| Slab                   196336        187360        199068        191920
 MEMORY| SReclaimable            25296         22264         25296         23995
 MEMORY| MemLikelyFree        62222180      62179600      62305812      62238408


 GENERATE|  Preliminary Number of Bonds generated:                             0
 GENERATE|  Achieved consistency in connectivity generation.

 *******************************************************************************
 *******************************************************************************
 **                                                                           **
 **     #####                         ##              ##                      **
 **    ##   ##            ##          ##              ##                      **
 **   ##     ##                       ##            ######                    **
 **   ##     ##  ##   ##  ##   #####  ##  ##   ####   ##    #####    #####    **
 **   ##     ##  ##   ##  ##  ##      ## ##   ##      ##   ##   ##  ##   ##   **
 **   ##  ## ##  ##   ##  ##  ##      ####     ###    ##   ######   ######    **
 **    ##  ###   ##   ##  ##  ##      ## ##      ##   ##   ##       ##        **
 **     #######   #####   ##   #####  ##  ##  ####    ##    #####   ##        **
 **           ##                                                    ##        **
 **                                                                           **
 **                                                ... make the atoms dance   **
 **                                                                           **
 **            Copyright (C) by CP2K developers group (2000 - 2018)           **
 **                                                                           **
 *******************************************************************************


 TOTAL NUMBERS AND MAXIMUM NUMBERS

  Total number of            - Atomic kinds:                                   3
                             - Atoms:                                       1064
                             - Shell sets:                                  1064
                             - Shells:                                      7168
                             - Primitive Cartesian functions:               6104
                             - Cartesian basis functions:                  26208
                             - Spherical basis functions:                  22512

  Maximum angular momentum of- Orbital basis functions:                        3
                             - Local part of the GTH pseudopotential:          2
                             - Non-local part of the GTH pseudopotential:      4


 SCF PARAMETERS         Density guess:                                    ATOMIC
                        --------------------------------------------------------
                        max_scf:                                            1000
                        max_scf_history:                                       0
                        max_diis:                                              4
                        --------------------------------------------------------
                        eps_scf:                                        1.00E-06
                        eps_scf_history:                                0.00E+00
                        eps_diis:                                       1.00E-01
                        eps_eigval:                                     1.00E-05
                        --------------------------------------------------------
                        level_shift [a.u.]:                                 0.00
                        added MOs                                       385    0
                        --------------------------------------------------------
                        Mixing method:                            BROYDEN_MIXING
                                                charge density mixing in g-space
                        --------------------------------------------------------
                        Smear method:                                FERMI_DIRAC
                        Electronic temperature [K]:                        300.0
                        Electronic temperature [a.u.]:                  9.50E-04
                        Accuracy threshold:                             1.00E-10
                        --------------------------------------------------------
                        Outer loop SCF in use 
                        No variables optimised in outer loop
                        eps_scf                                         1.00E-06
                        max_scf                                               15
                        No outer loop optimization
                        step_size                                       5.00E-01

 Number of electrons:                                                       8288
 Number of occupied orbitals:                                               4144
 Number of molecular orbitals:                                              4529

 Number of orbital functions:                                              22512
 Number of independent orbital functions:                                  22512

 Extrapolation method: initial_guess


 SCF WAVEFUNCTION OPTIMIZATION

  Step     Update method      Time    Convergence         Total energy    Change
  ------------------------------------------------------------------------------
     1 NoMix/Diag. 0.10E+00   22.4     1.28558944    -23434.9540085480 -2.34E+04
     2 Broy./Diag. 0.10E+00   21.9     0.28728742    -23997.4696937793 -5.63E+02
     3 Broy./Diag. 0.10E+00   21.8     0.53124841    -23865.2852597903  1.32E+02
     4 Broy./Diag. 0.10E+00   22.0     0.08187642    -23690.3931175483  1.75E+02
     5 Broy./Diag. 0.10E+00   22.1     0.06253598    -23534.5592958507  1.56E+02
     6 Broy./Diag. 0.10E+00   23.0     0.02689143    -23411.7471691771  1.23E+02
     7 Broy./Diag. 0.10E+00   22.0     0.08392133    -23408.2557117044  3.49E+00
     8 Broy./Diag. 0.10E+00   22.0     0.01279244    -23429.2897453304 -2.10E+01
     9 Broy./Diag. 0.10E+00   22.1     0.02428863    -23425.4693003602  3.82E+00
    10 Broy./Diag. 0.10E+00   22.0     0.00190308    -23419.4958473016  5.97E+00
    11 Broy./Diag. 0.10E+00   22.1     0.00614046    -23422.1642025929 -2.67E+00
    12 Broy./Diag. 0.10E+00   22.1     0.00485709    -23424.3515285027 -2.19E+00
    13 Broy./Diag. 0.10E+00   22.0     0.00193619    -23423.6205047920  7.31E-01
    14 Broy./Diag. 0.10E+00   22.1     0.00447102    -23424.4367769658 -8.16E-01
    15 Broy./Diag. 0.10E+00   22.1     0.00143652    -23425.5316285508 -1.09E+00
    16 Broy./Diag. 0.10E+00   23.6     0.00202902    -23425.2671075004  2.65E-01
    17 Broy./Diag. 0.10E+00   22.1     0.00105978    -23425.2761203915 -9.01E-03
    18 Broy./Diag. 0.10E+00   22.0     0.00142382    -23425.3723775583 -9.63E-02
    19 Broy./Diag. 0.10E+00   22.0     0.00098264    -23425.5511044492 -1.79E-01
    20 Broy./Diag. 0.10E+00   22.2     0.00046295    -23425.6092302167 -5.81E-02
    21 Broy./Diag. 0.10E+00   22.1     0.00116943    -23425.3987999795  2.10E-01
    22 Broy./Diag. 0.10E+00   22.1     0.00031630    -23425.3687234413  3.01E-02
    23 Broy./Diag. 0.10E+00   22.2     0.00052891    -23425.5431934458 -1.74E-01
    24 Broy./Diag. 0.10E+00   22.2     0.00016773    -23425.6899001891 -1.47E-01
    25 Broy./Diag. 0.10E+00   22.3     0.00033368    -23425.6401330989  4.98E-02
    26 Broy./Diag. 0.10E+00   23.6     0.00015986    -23425.5722409277  6.79E-02
    27 Broy./Diag. 0.10E+00   22.3     0.00021425    -23425.6255497272 -5.33E-02
    28 Broy./Diag. 0.10E+00   22.3     0.00028978    -23425.6838479207 -5.83E-02
    29 Broy./Diag. 0.10E+00   22.1     0.00008984    -23425.6890740427 -5.23E-03
    30 Broy./Diag. 0.10E+00   21.9     0.00013250    -23425.6898596986 -7.86E-04
    31 Broy./Diag. 0.10E+00   23.8     0.00025169    -23425.6967213220 -6.86E-03
    32 Broy./Diag. 0.10E+00   22.6     0.00004243    -23425.7086958952 -1.20E-02
    33 Broy./Diag. 0.10E+00   22.4     0.00027331    -23425.6660490913  4.26E-02
    34 Broy./Diag. 0.10E+00   22.9     0.00007717    -23425.6392474203  2.68E-02
    35 Broy./Diag. 0.10E+00   22.6     0.00015202    -23425.6560266637 -1.68E-02
    36 Broy./Diag. 0.10E+00   22.5     0.00007232    -23425.6860108261 -3.00E-02
    37 Broy./Diag. 0.10E+00   22.4     0.00009695    -23425.6926461594 -6.64E-03
    38 Broy./Diag. 0.10E+00   22.5     0.00004132    -23425.6927218613 -7.57E-05
    39 Broy./Diag. 0.10E+00   22.6     0.00006691    -23425.6952861068 -2.56E-03
    40 Broy./Diag. 0.10E+00   22.6     0.00002691    -23425.7002685417 -4.98E-03
    41 Broy./Diag. 0.10E+00   23.5     0.00003975    -23425.7024121949 -2.14E-03
    42 Broy./Diag. 0.10E+00   22.4     0.00002788    -23425.7042955940 -1.88E-03
    43 Broy./Diag. 0.10E+00   22.4     0.00000833    -23425.7069338517 -2.64E-03
    44 Broy./Diag. 0.10E+00   22.3     0.00000991    -23425.7081595251 -1.23E-03
    45 Broy./Diag. 0.10E+00   22.4     0.00001165    -23425.7043506320  3.81E-03
    46 Broy./Diag. 0.10E+00   22.3     0.00000563    -23425.6985671710  5.78E-03
    47 Broy./Diag. 0.10E+00   22.6     0.00001283    -23425.6959412471  2.63E-03
    48 Broy./Diag. 0.10E+00   22.6     0.00001292    -23425.6953808494  5.60E-04
    49 Broy./Diag. 0.10E+00   22.3     0.00001435    -23425.6968214394 -1.44E-03
    50 Broy./Diag. 0.10E+00   22.8     0.00000854    -23425.6985570270 -1.74E-03
    51 Broy./Diag. 0.10E+00   23.5     0.00001397    -23425.7004267420 -1.87E-03
    52 Broy./Diag. 0.10E+00   22.7     0.00000882    -23425.7026838398 -2.26E-03
    53 Broy./Diag. 0.10E+00   23.0     0.00000738    -23425.7033806203 -6.97E-04
    54 Broy./Diag. 0.10E+00   22.3     0.00000685    -23425.7032624357  1.18E-04
    55 Broy./Diag. 0.10E+00   23.9     0.00000651    -23425.7034840918 -2.22E-04
    56 Broy./Diag. 0.10E+00   22.4     0.00000273    -23425.7043706913 -8.87E-04
    57 Broy./Diag. 0.10E+00   22.6     0.00000268    -23425.7049773169 -6.07E-04
    58 Broy./Diag. 0.10E+00   22.2     0.00000289    -23425.7046223785  3.55E-04
    59 Broy./Diag. 0.10E+00   22.6     0.00000145    -23425.7038354694  7.87E-04
    60 Broy./Diag. 0.10E+00   22.5     0.00000230    -23425.7031234789  7.12E-04
    61 Broy./Diag. 0.10E+00   22.5     0.00000208    -23425.7025542501  5.69E-04
    62 Broy./Diag. 0.10E+00   22.7     0.00000124    -23425.7022576176  2.97E-04
    63 Broy./Diag. 0.10E+00   23.2     0.00000156    -23425.7022513151  6.30E-06
    64 Broy./Diag. 0.10E+00   22.6     0.00000112    -23425.7024690538 -2.18E-04
    65 Broy./Diag. 0.10E+00   22.8     0.00000131    -23425.7027029095 -2.34E-04
    66 Broy./Diag. 0.10E+00   22.3     0.00000071    -23425.7027894898 -8.66E-05

  *** SCF run converged in    66 steps ***


  Electronic density on regular grids:      -8287.9999999996        0.0000000004
  Core density on regular grids:             8287.9999999996       -0.0000000004
  Total charge density on r-space grids:       -0.0000000001
  Total charge density g-space grids:           0.0000000002

  Overlap energy of the core charge distribution:               0.00005229697452
  Self energy of the core charge distribution:             -41433.67107258089527
  Core Hamiltonian energy:                                  13190.45282602994484
  Hartree energy:                                            8709.03522550351045
  Exchange-correlation energy:                              -3891.49818418594805
  Electronic entropic energy:                                  -0.02163659499769
  Fermi energy:                                                -0.03250292707985

  Total energy:                                            -23425.70278948981650

  outer SCF iter =    1 RMS gradient =   0.71E-06 energy =     -23425.7027894898
  outer SCF loop converged in   1 iterations or   66 steps


 ENERGY| Total FORCE_EVAL ( QS ) energy (a.u.):           -23425.702789489816496


 -------------------------------------------------------------------------------
 -                                                                             -
 -                                DBCSR STATISTICS                             -
 -                                                                             -
 -------------------------------------------------------------------------------
 COUNTER                                    TOTAL       BLAS       SMM       ACC
 flops     9 x     9 x    32         888807997440       0.0%      0.0%    100.0%
 flops     9 x    22 x    32        1434959235072       0.0%      0.0%    100.0%
 flops    22 x     9 x    32        1435069633536       0.0%      0.0%    100.0%
 flops    22 x    22 x    32        2799018123264       0.0%      0.0%    100.0%
 flops    25 x     9 x    32        5960638886400       0.0%      0.0%    100.0%
 flops     9 x    25 x    32        5966660620800       0.0%      0.0%    100.0%
 flops    22 x    25 x    32        9581666688000       0.0%    100.0%      0.0%
 flops    25 x    22 x    32        9581666688000       0.0%    100.0%      0.0%
 flops    25 x    25 x    32       38288194560000       0.0%      0.0%    100.0%
 flops inhomo. stacks                           0       0.0%      0.0%      0.0%
 flops total                        75.936682E+12       0.0%     25.2%     74.8%
 flops max/rank                    276.607812E+09       0.0%     29.5%     70.5%
 matmuls inhomo. stacks                         0       0.0%      0.0%      0.0%
 matmuls total                         2818201320       0.0%     19.3%     80.7%
 number of processed stacks               3439260       0.0%     22.0%     78.0%
 average stack size                                     0.0     720.5     847.3
 marketing flops                   281.658889E+12
 -------------------------------------------------------------------------------
 # multiplications                             66
 max memory usage/rank             797.011968E+06
 # max total images/rank                        1
 # max 3D layers                                1
 # MPI messages exchanged                  727056
 MPI messages size (bytes):
  total size                         1.707068E+12
  min size                           2.229248E+06
  max size                           2.566144E+06
  average size                       2.347918E+06
 MPI breakdown and total messages size (bytes):
             size <=      128                   0                        0
       128 < size <=     8192                   0                        0
      8192 < size <=    32768                   0                        0
     32768 < size <=   131072                   0                        0
    131072 < size <=  4194304              727056            1707068030976
   4194304 < size <= 16777216                   0                        0
  16777216 < size                               0                        0
 -------------------------------------------------------------------------------

 MEMORY| Estimated peak process memory [MiB]                                 761

 -------------------------------------------------------------------------------
 -                                                                             -
 -                         MESSAGE PASSING PERFORMANCE                         -
 -                                                                             -
 -------------------------------------------------------------------------------

 ROUTINE             CALLS      AVE VOLUME [Bytes]
 MP_Group               73
 MP_Bcast              257                2709697.
 MP_Allreduce         1106                   3126.
 MP_Sync               271
 MP_Alltoall          3605                9882227.
 MP_ISendRecv       128877                  71936.
 MP_Wait            151985
 MP_comm_split         132
 MP_ISend            28423                 386114.
 MP_IRecv            28380                 385225.
 MP_Recv               141                5763072.
 MP_Write_All            1                1204588.
 -------------------------------------------------------------------------------


 -------------------------------------------------------------------------------
 -                                                                             -
 -                           R E F E R E N C E S                               -
 -                                                                             -
 -------------------------------------------------------------------------------
 
 CP2K version 6.1, the CP2K developers group (2018).
 CP2K is freely available from https://www.cp2k.org/ .

 Schuett, Ole; Messmer, Peter; Hutter, Juerg; VandeVondele, Joost. 
 Electronic Structure Calculations on Graphics Processing Units, John Wiley & Sons, Ltd, 173-190 (2016). 
 GPU-Accelerated Sparse Matrix-Matrix Multiplication for Linear Scaling Density Functional Theory.
 http://dx.doi.org/10.1002/9781118670712.ch8


 Borstnik, U; VandeVondele, J; Weber, V; Hutter, J. 
 PARALLEL COMPUTING, 40 (5-6), 47-58 (2014). 
 Sparse matrix multiplication: The distributed block-compressed sparse
 row library.
 http://dx.doi.org/10.1016/j.parco.2014.03.012


 Hutter, J; Iannuzzi, M; Schiffmann, F; VandeVondele, J. 
 WILEY INTERDISCIPLINARY REVIEWS-COMPUTATIONAL MOLECULAR SCIENCE, 4 (1), 15-25 (2014). 
 CP2K: atomistic simulations of condensed matter systems.
 http://dx.doi.org/10.1002/wcms.1159


 Marek, A; Blum, V; Johanni, R; Havu, V; Lang, B; Auckenthaler, T;
 Heinecke, A; Bungartz, H; Lederer, H. 
 Journal of Physics: Condensed Matter, 26 (21), (2014). 
 The ELPA library: scalable parallel eigenvalue solutions for electronic structure
 theory and computational science.
 http://dx.doi.org/10.1088/0953-8984/26/21/213201


 VandeVondele, J; Hutter, J. 
 JOURNAL OF CHEMICAL PHYSICS, 127 (11), 114105 (2007). 
 Gaussian basis sets for accurate calculations on molecular systems in
 gas and condensed phases.
 http://dx.doi.org/10.1063/1.2770708


 Krack, M. 
 THEORETICAL CHEMISTRY ACCOUNTS, 114 (1-3), 145-152 (2005). 
 Pseudopotentials for H to Kr optimized for gradient-corrected
 exchange-correlation functionals.
 http://dx.doi.org/10.1007/s00214-005-0655-y


 VandeVondele, J; Krack, M; Mohamed, F; Parrinello, M; Chassaing, T;
 Hutter, J. COMPUTER PHYSICS COMMUNICATIONS, 167 (2), 103-128 (2005). 
 QUICKSTEP: Fast and accurate density functional calculations using a
 mixed Gaussian and plane waves approach.
 http://dx.doi.org/10.1016/j.cpc.2004.12.014


 Frigo, M; Johnson, SG. 
 PROCEEDINGS OF THE IEEE, 93 (2), 216-231 (2005). 
 The design and implementation of FFTW3.
 http://dx.doi.org/10.1109/JPROC.2004.840301


 Hartwigsen, C; Goedecker, S; Hutter, J. 
 PHYSICAL REVIEW B, 58 (7), 3641-3662 (1998). 
 Relativistic separable dual-space Gaussian pseudopotentials from H to Rn.
 http://dx.doi.org/10.1103/PhysRevB.58.3641


 Lippert, G; Hutter, J; Parrinello, M. 
 MOLECULAR PHYSICS, 92 (3), 477-487 (1997). 
 A hybrid Gaussian and plane wave density functional scheme.
 http://dx.doi.org/10.1080/002689797170220


 Perdew, JP; Burke, K; Ernzerhof, M. 
 PHYSICAL REVIEW LETTERS, 77 (18), 3865-3868 (1996). 
 Generalized gradient approximation made simple.
 http://dx.doi.org/10.1103/PhysRevLett.77.3865


 Goedecker, S; Teter, M; Hutter, J. 
 PHYSICAL REVIEW B, 54 (3), 1703-1710 (1996). 
 Separable dual-space Gaussian pseudopotentials.
 http://dx.doi.org/10.1103/PhysRevB.54.1703


 -------------------------------------------------------------------------------
 -                                                                             -
 -                                T I M I N G                                  -
 -                                                                             -
 -------------------------------------------------------------------------------
 SUBROUTINE                       CALLS  ASD         SELF TIME        TOTAL TIME
                                MAXIMUM       AVERAGE  MAXIMUM  AVERAGE  MAXIMUM
 CP2K                                 1  1.0    0.143    0.153 1495.905 1495.908
 qs_energies                          1  2.0    0.000    0.000 1494.756 1494.770
 scf_env_do_scf                       1  3.0    0.000    0.000 1484.977 1486.603
 scf_env_do_scf_inner_loop           66  4.0    0.003    0.005 1484.977 1486.602
 qs_scf_new_mos                      66  5.0    0.001    0.001 1244.034 1245.110
 eigensolver                         66  6.0    0.004    0.005 1200.832 1203.420
 cp_fm_diag_elpa                     66  7.0    0.000    0.000  868.597  869.433
 cp_fm_diag_elpa_base                66  8.0  863.531  865.889  868.596  869.432
 cp_fm_triangular_multiply          198  7.0  328.259  333.108  328.259  333.108
 qs_ks_update_qs_env                 66  5.0    0.000    0.001  138.579  138.591
 rebuild_ks_matrix                   66  6.0    0.000    0.000  138.383  138.395
 qs_ks_build_kohn_sham_matrix        66  7.0    0.009    0.012  138.383  138.395
 qs_rho_update_rho                   67  5.0    0.001    0.001   81.797   81.810
 calculate_rho_elec                  67  6.0   35.466   43.971   81.797   81.809
 pw_transfer                       1458  9.4    0.090    0.124   73.407   77.450
 fft_wrap_pw1pw2                   1326 10.5    0.014    0.018   72.630   76.665
 fft_wrap_pw1pw2_300                794 11.5    5.433    5.952   69.458   73.572
 sum_up_and_integrate                66  8.0    0.168    0.183   72.046   72.056
 integrate_v_rspace                  66  9.0   38.343   45.817   71.877   71.932
 fft3d_ps                          1326 12.5   27.588   29.368   57.769   62.764
 qs_vxc_create                       66  8.0    0.001    0.002   57.765   58.478
 xc_vxc_pw_create                    66  9.0    0.645    0.789   57.763   58.478
 rs_pw_transfer                     666  9.5    0.009    0.011   36.533   44.348
 density_rs2pw                       67  7.0    0.005    0.006   35.563   43.432
 mp_alltoall_z22v                  1326 14.5   23.532   35.498   23.532   35.498
 calculate_dm_sparse                 66  6.0    0.042    0.076   33.070   34.201
 cp_dbcsr_plus_fm_fm_t_native        66  7.0    0.002    0.003   32.816   34.110
 xc_rho_set_and_dset_create          66 10.0    0.239    0.284   30.484   31.370
 mp_alltoall_d11v                   932  9.3   24.829   30.941   24.829   30.941
 -------------------------------------------------------------------------------

 The number of warnings for this run is : 0
 
 -------------------------------------------------------------------------------
  **** **** ******  **  PROGRAM ENDED AT                 2019-05-20 11:51:25.953
 ***** ** ***  *** **   PROGRAM RAN ON                                  nid04443
 **    ****   ******    PROGRAM RAN BY                                       cpi
 ***** **    ** ** **   PROGRAM PROCESS ID                                 27999
  **** **  *******  **  PROGRAM STOPPED IN /scratch/snx3000/cpi/exercise_12/TASK
                                           _1/STM
