      38
 i =      29, E =       -0.0604878400
 Ar        15.3022824059        7.0712009285       13.8866605262
 Ar         5.1812404922       11.7766857322       12.6696350355
 Ar         6.9109487557        8.8302505552        7.0431911232
 Ar        13.4873612337        5.1184805322        6.9368194493
 Ar        10.8711489775       11.5073690735       15.9888427368
 Ar         8.3087544060        4.8108581758       12.2356906303
 Ar         5.4796148406       12.4018711529        7.6892292011
 Ar        12.9235042175        8.5391378688        5.4569310898
 Ar         8.7440808296       13.0637255213       13.2140085468
 Ar        14.9942681676       12.9026279329       10.9995454961
 Ar         9.5383452908        8.8333323012        3.9407622799
 Ar         7.9340772593       11.9519167770        4.9378127621
 Ar         6.6366075251       14.5924440901       10.5335452764
 Ar        12.4247407298       13.8611357262       13.5373823026
 Ar        16.0131101821        7.7691051074        7.4468939980
 Ar        15.9554181575        9.2224608565       10.8087274642
 Ar        12.8220826518       14.5326135173        8.2551279252
 Ar        11.7751187780       12.4180445931        5.1358752224
 Ar        10.3437582211       15.5325494626       10.9179533252
 Ar         9.2005195461       13.6385589476        7.9405820833
 Ar        14.1120671638       11.0865229021        7.8689251333
 Ar         7.2502663901       10.4091250686       15.5333404516
 Ar         9.9719000712        6.4185874853        6.7123754043
 Ar         4.3678582013        9.4519991101        9.7468390154
 Ar        12.2699953125        8.0433134316       16.0404328746
 Ar        14.8751313672        5.4431692354       10.4913001770
 Ar         6.4381473826        8.1585524756       12.5562721116
 Ar         5.9346522567        5.9773571608        9.3941237152
 Ar        11.1323478713        4.4577364514        9.7103610174
 Ar        11.7826231136        6.5351315174       12.6704780776
 Ar         8.7862951311        6.9093851869       15.2923678181
 Ar        11.4085434989       11.8335421467       10.5031714086
 Ar        13.3852404549       10.2222589211       13.2113596426
 Ar        10.2618787101       10.1210027348        7.4847726065
 Ar        12.6568297469        8.1128276544        9.3918267920
 Ar         7.7947652426       10.9915755859       10.1885168579
 Ar         9.8334503988        9.5924393695       12.9937339915
 Ar         9.1328000184        7.6314567102       10.0321204304
      38
 i =      29, E =       -0.0604174878
 Ar        15.2464557574        7.0967840175       13.7964596120
 Ar         5.2163534271       11.7558439139       12.6805736006
 Ar         6.9303568165        8.8256087071        7.0577827188
 Ar        13.3461809546        5.2588312749        6.9700119310
 Ar        10.9020127001       11.5387543240       15.9575518476
 Ar         8.2446003045        4.7541313338       12.2008929668
 Ar         5.5247382108       12.3873724510        7.6674235680
 Ar        12.9600488762        8.6183165240        5.4315741312
 Ar         8.7806760264       13.0330336182       13.1921343232
 Ar        15.0019202478       12.9830647743       10.9981266803
 Ar         9.5625153357        8.7501145523        3.9870132469
 Ar         7.9913340586       11.8954071288        4.9336976699
 Ar         6.6528530090       14.5554088020       10.5284557977
 Ar        12.4330643887       13.9361518299       13.5369290592
 Ar        15.9648351579        7.7858353411        7.5119296342
 Ar        16.0227666235        9.3194119407       10.8265849063
 Ar        12.8274227284       14.5749320079        8.2555526870
 Ar        11.7948004320       12.4377769470        5.1704304685
 Ar        10.3305528621       15.5556432901       10.9044978097
 Ar         9.2210097222       13.6139115982        7.9359429084
 Ar        14.1136751561       11.1188879815        7.9025514805
 Ar         7.3132188924       10.3670892443       15.5147466354
 Ar         9.8006602589        6.3029359450        6.7097798458
 Ar         4.3771505020        9.4707483698        9.7467153270
 Ar        12.2497550273        8.0674781617       15.9728804461
 Ar        14.8002046506        5.4109929011       10.4618575866
 Ar         6.4715424306        8.1539261525       12.5359045722
 Ar         5.9024455885        5.9864591527        9.3902119678
 Ar        11.0642340894        4.3720810840        9.7046268888
 Ar        11.7258059796        6.4113579176       12.6822164812
 Ar         8.7903293108        6.8508580669       15.2496596228
 Ar        11.4216352860       11.8787210120       10.5144118486
 Ar        13.4266852020       10.3077900392       13.2168379952
 Ar        10.2999181882       10.0832999074        7.5059211254
 Ar        12.6673806236        8.2154791745        9.5650544487
 Ar         7.8253475116       10.9595222942       10.1858488222
 Ar         9.8978217304        9.5538353454       12.9702458300
 Ar         9.1394669325        7.5825548734       10.0244975085
      38
 i =      29, E =       -0.0603416327
 Ar        15.2179197095        7.1099613369       13.6991505791
 Ar         5.2324710800       11.7419135443       12.6802640804
 Ar         6.9564847121        8.8252647717        7.0707466822
 Ar        13.1777170644        5.4240903559        7.0001979677
 Ar        10.9182245163       11.5374764497       15.9498183327
 Ar         8.2067099375        4.7349978056       12.1930481431
 Ar         5.5666322402       12.3703052114        7.6316154303
 Ar        13.0289455998        8.7288377871        5.3636449829
 Ar         8.7906863536       13.0163272082       13.1848336944
 Ar        15.0038488678       13.0482853663       11.0118956826
 Ar         9.5861655526        8.6388001716        4.0544213217
 Ar         8.0598425839       11.8357375949        4.9226869295
 Ar         6.6537173235       14.5275023602       10.5138783116
 Ar        12.4223125720       13.9802114666       13.5501487138
 Ar        15.9229527861        7.7917125868        7.5561728518
 Ar        16.0776939706        9.4079493514       10.8296836345
 Ar        12.8309198411       14.6122239596        8.2697866922
 Ar        11.8240822110       12.4756940089        5.1980919093
 Ar        10.3096233947       15.5688349814       10.9028502115
 Ar         9.2378945810       13.5996257088        7.9285269697
 Ar        14.1239404230       11.1511722760        7.9304084099
 Ar         7.3423114473       10.3480523792       15.5015480407
 Ar         9.5775671329        6.1320096632        6.7253032349
 Ar         4.3912696164        9.4824892835        9.7373054728
 Ar        12.2618393133        8.0623328553       15.9249605288
 Ar        14.7283822260        5.3588753022       10.4202599526
 Ar         6.4998898256        8.1544322260       12.5176711382
 Ar         5.9022136801        5.9927201210        9.3842826513
 Ar        11.0010988877        4.2808521720        9.7096083005
 Ar        11.6904664797        6.3339253914       12.6785172017
 Ar         8.7982904168        6.8336555227       15.2349942023
 Ar        11.4316995105       11.9122034444       10.5265368845
 Ar        13.4604551078       10.3668728744       13.2286115976
 Ar        10.3494206236       10.0585120851        7.5170998596
 Ar        12.6949265712        8.2966943814        9.6978293290
 Ar         7.8512487346       10.9407855413       10.1803822492
 Ar         9.9438132110        9.5349221707       12.9551917665
 Ar         9.1680968947        7.5540922833       10.0155600587
      38
 i =      29, E =       -0.0604362379
 Ar        15.1833631228        7.1269572253       13.5862454705
 Ar         5.2501181649       11.7263567670       12.6802131124
 Ar         6.9907698012        8.8235398846        7.0856460980
 Ar        12.9670270984        5.6339394639        7.0454125188
 Ar        10.9359343369       11.5357493391       15.9411049834
 Ar         8.1668745591        4.7151081984       12.1822035131
 Ar         5.6129002356       12.3515147907        7.5916013006
 Ar        13.1096003097        8.8526042633        5.2840465736
 Ar         8.8016551259       12.9983764364       13.1772601389
 Ar        15.0057599978       13.1200665692       11.0270021198
 Ar         9.6230070473        8.5061973693        4.1469743622
 Ar         8.1381851638       11.7658294811        4.9105844842
 Ar         6.6546101578       14.4963682914       10.4975024536
 Ar        12.4100170344       14.0286234137       13.5649728674
 Ar        15.8688663194        7.7956387650        7.6060302510
 Ar        16.1392533898        9.5082959238       10.8313539284
 Ar        12.8344983850       14.6531975031        8.2856824205
 Ar        11.8571925007       12.5210274369        5.2264731785
 Ar        10.2864046996       15.5834809813       10.9011395410
 Ar         9.2561622649       13.5851852889        7.9203246759
 Ar        14.1333551793       11.1836031889        7.9614178718
 Ar         7.3743835560       10.3269609668       15.4869686138
 Ar         9.3243501503        5.9254077895        6.7485578820
 Ar         4.4075005031        9.4957312660        9.7263628738
 Ar        12.2758083757        8.0560075123       15.8708178881
 Ar        14.6414968164        5.3011683083       10.3683193475
 Ar         6.5335922094        8.1541624594       12.4955222956
 Ar         5.9013516203        5.9994051452        9.3778715597
 Ar        10.9354916049        4.1772182984        9.7079965522
 Ar        11.6528126019        6.2494089484       12.6705644760
 Ar         8.8071029643        6.8146167519       15.2189696716
 Ar        11.4430049855       11.9511271211       10.5419611732
 Ar        13.4986090992       10.4330449271       13.2445121737
 Ar        10.4119286359       10.0403908686        7.5334169315
 Ar        12.7267009878        8.3822984862        9.8483820613
 Ar         7.8809291708       10.9198479376       10.1745104507
 Ar         9.9948429380        9.5129296414       12.9359942468
 Ar         9.2063138862        7.5189649904        9.9936139390
      38
 i =      29, E =       -0.0607472659
 Ar        15.1465969348        7.1460920621       13.4700345138
 Ar         5.2675226145       11.7106991409       12.6804034933
 Ar         7.0302890213        8.8158420317        7.1003252615
 Ar        12.7357383062        5.8640616147        7.1064728945
 Ar        10.9532786521       11.5338200241       15.9325322985
 Ar         8.1301490108        4.6957665603       12.1691565711
 Ar         5.6588712072       12.3322573490        7.5513827664
 Ar        13.1822304072        8.9619692184        5.2124923952
 Ar         8.8122567621       12.9814135493       13.1702750669
 Ar        15.0075699187       13.1902856816       11.0419519434
 Ar         9.6697060377        8.3692662434        4.2517231863
 Ar         8.2176424128       11.6934328017        4.8988638662
 Ar         6.6554690628       14.4651052128       10.4808718115
 Ar        12.3973691677       14.0761477072       13.5797174201
 Ar        15.8045622548        7.7961791403        7.6545418275
 Ar        16.1973062559        9.6048223669       10.8302999675
 Ar        12.8377795806       14.6937014360        8.3016633644
 Ar        11.8901380599       12.5671329253        5.2532487315
 Ar        10.2632693526       15.5979731408       10.8994948193
 Ar         9.2743785159       13.5711296861        7.9122980870
 Ar        14.1410004009       11.2123098105        7.9916283318
 Ar         7.4058571771       10.3060638672       15.4728078944
 Ar         9.0926297402        5.7325157525        6.7773435515
 Ar         4.4245351222        9.5091554788        9.7146989052
 Ar        12.2904995085        8.0490500334       15.8165774849
 Ar        14.5488626437        5.2486035235       10.3087788649
 Ar         6.5686151292        8.1530266547       12.4723653156
 Ar         5.8969085577        6.0057076104        9.3738354066
 Ar        10.8764050671        4.0790487011        9.6965463290
 Ar        11.6178165392        6.1694643475       12.6586978096
 Ar         8.8160109144        6.7955713764       15.2031712507
 Ar        11.4546320914       11.9899326860       10.5581242771
 Ar        13.5370111773       10.4989011061       13.2639194411
 Ar        10.4782266764       10.0267968552        7.5525629452
 Ar        12.7570066325        8.4566192672        9.9915860952
 Ar         7.9113935726       10.8988649443       10.1683460814
 Ar        10.0441205116        9.4911960882       12.9156869711
 Ar         9.2481200020        7.4804260049        9.9631067585
      38
 i =      29, E =       -0.0612509506
 Ar        15.1076951629        7.1675741471       13.3492268579
 Ar         5.2853061899       11.6944080249       12.6808304720
 Ar         7.0738574938        8.8008768448        7.1150005486
 Ar        12.4835095372        6.1114889633        7.1828725366
 Ar        10.9708946525       11.5317725395       15.9240632425
 Ar         8.0949964868        4.6757284138       12.1540816046
 Ar         5.7061682491       12.3115150785        7.5096547697
 Ar        13.2463427674        9.0559749262        5.1512047800
 Ar         8.8227628304       12.9652293886       13.1641707953
 Ar        15.0094358671       13.2612670366       11.0574236450
 Ar         9.7254793011        8.2276848301        4.3659773894
 Ar         8.3006038476       11.6166709330        4.8872460441
 Ar         6.6564262662       14.4326758133       10.4634332401
 Ar        12.3839737914       14.1242801495       13.5947310333
 Ar        15.7275000413        7.7948521013        7.7027026755
 Ar        16.2526616478        9.6994232943       10.8274965628
 Ar        12.8407812582       14.7352778074        8.3182849467
 Ar        11.9238870531       12.6137246899        5.2797216784
 Ar        10.2394534181       15.6125970938       10.8978158635
 Ar         9.2936655903       13.5559133241        7.9043245685
 Ar        14.1483330734       11.2400231703        8.0218625669
 Ar         7.4375584866       10.2847228143       15.4588115958
 Ar         8.8828659197        5.5555022762        6.8090005467
 Ar         4.4424698298        9.5233670130        9.7020554489
 Ar        12.3065926950        8.0413507252       15.7610604726
 Ar        14.4487018511        5.2012304851       10.2406572314
 Ar         6.6055313346        8.1510465403       12.4480209681
 Ar         5.8865661403        6.0124338411        9.3740072595
 Ar        10.8214031264        3.9882968384        9.6740661943
 Ar        11.5846964626        6.0928772410       12.6434734391
 Ar         8.8253684999        6.7758310133       15.1870806456
 Ar        11.4672273678       12.0282303482       10.5747804985
 Ar        13.5769308327       10.5662284430       13.2875870427
 Ar        10.5468225612       10.0133726961        7.5740113643
 Ar        12.7873124961        8.5204050221       10.1262131928
 Ar         7.9437827297       10.8776329433       10.1616748940
 Ar        10.0915493766        9.4703413953       12.8957866223
 Ar         9.2926607643        7.4385237940        9.9271207619
      38
 i =      29, E =       -0.0618208462
 Ar        15.0692766890        7.1903488234       13.2238881807
 Ar         5.3037332183       11.6767935439       12.6817015077
 Ar         7.1208956955        8.7779109778        7.1301670142
 Ar        12.2275115490        6.3504984789        7.2654395607
 Ar        10.9897550369       11.5297592843       15.9155143630
 Ar         8.0583926726        4.6531000415       12.1375487225
 Ar         5.7571382942       12.2880662042        7.4635897235
 Ar        13.2993764983        9.1360821503        5.1031018456
 Ar         8.8334404006       12.9494269468       13.1577825720
 Ar        15.0116113065       13.3370690598       11.0745522592
 Ar         9.7861425349        8.0813227300        4.4865580967
 Ar         8.3908701424       11.5337001867        4.8765098917
 Ar         6.6572243124       14.3974271292       10.4440964121
 Ar        12.3690324409       14.1754776668       13.6107769627
 Ar        15.6369135144        7.7960852231        7.7524010266
 Ar        16.3068437144        9.7958994634       10.8243885467
 Ar        12.8434471770       14.7805532783        8.3365640398
 Ar        11.9604492657       12.6629036917        5.3068314101
 Ar        10.2137175599       15.6282072186       10.8960892811
 Ar         9.3145049722       13.5411281161        7.8964626148
 Ar        14.1571608410       11.2710336066        8.0533346554
 Ar         7.4709515342       10.2619581515       15.4453356851
 Ar         8.6934203809        5.3907077263        6.8415914472
 Ar         4.4629684944        9.5395301696        9.6878901060
 Ar        12.3255328148        8.0325257636       15.7019297152
 Ar        14.3372968535        5.1584247305       10.1640500670
 Ar         6.6435788187        8.1486096950       12.4239200380
 Ar         5.8666433333        6.0210406307        9.3808284335
 Ar        10.7639379199        3.9043342355        9.6407824340
 Ar        11.5526343022        6.0178539708       12.6248670481
 Ar         8.8357290798        6.7541119916       15.1699460334
 Ar        11.4820306320       12.0668553067       10.5928949817
 Ar        13.6210015281       10.6370892516       13.3159664839
 Ar        10.6133722946       10.0064032983        7.5985578744
 Ar        12.8161774934        8.5752334680       10.2467496328
 Ar         7.9786508348       10.8566624449       10.1544227129
 Ar        10.1366324018        9.4513026700       12.8783948146
 Ar         9.3337784472        7.3949146744        9.8921078056
      38
 i =      29, E =       -0.0621047902
 Ar        15.0390864315        7.2111078278       13.0901586479
 Ar         5.3250224291       11.6552529372       12.6849520915
 Ar         7.1742756525        8.7433783603        7.1480501740
 Ar        12.0115002289        6.5311509785        7.3500871996
 Ar        11.0121892042       11.5281133662       15.9070330572
 Ar         8.0126451421        4.6232951710       12.1189137516
 Ar         5.8188204790       12.2588038702        7.4075832553
 Ar        13.3404801466        9.2155286072        5.0622865402
 Ar         8.8467321721       12.9335828858       13.1529736538
 Ar        15.0138689276       13.4290978083       11.0962717982
 Ar         9.8337952534        7.9285654714        4.5989395435
 Ar         8.4992714269       11.4373435038        4.8624292502
 Ar         6.6563018191       14.3545344132       10.4198687354
 Ar        12.3503697604       14.2371267266       13.6297914322
 Ar        15.5322540661        7.8056958714        7.8089858927
 Ar        16.3673089606        9.9069563409       10.8243007120
 Ar        12.8463998153       14.8382040489        8.3594347018
 Ar        12.0058661147       12.7241042985        5.3366044467
 Ar        10.1825862255       15.6470140926       10.8941197181
 Ar         9.3386676220       13.5288308707        7.8869178111
 Ar        14.1721015398       11.3133449820        8.0893565276
 Ar         7.5093384959       10.2343864035       15.4309428877
 Ar         8.5017798208        5.2190898649        6.8766140095
 Ar         4.4896354175        9.5609868649        9.6685291922
 Ar        12.3518710195        8.0211845444       15.6311707131
 Ar        14.2057986658        5.1118593094       10.0791543619
 Ar         6.6832690130        8.1452198176       12.4009479400
 Ar         5.8284841229        6.0355214664        9.3980852048
 Ar        10.6876085802        3.8132921808        9.5991600841
 Ar        11.5188746373        5.9367954933       12.6005566691
 Ar         8.8479872050        6.7251776030       15.1493082415
 Ar        11.5018938172       12.1138542333       10.6165009911
 Ar        13.6739479510       10.7191638143       13.3509428454
 Ar        10.6732189469       10.0292888909        7.6298012600
 Ar        12.8375655231        8.6295023498       10.3469934421
 Ar         8.0184045488       10.8374453912       10.1472645697
 Ar        10.1801758690        9.4354859987       12.8650783181
 Ar         9.3523779485        7.3510653415        9.8774243289
